<?xml version="1.0" encoding="utf-8"?>
<!DOCTYPE eagle SYSTEM "eagle.dtd">
<eagle version="9.6.2">
<drawing>
<settings>
<setting alwaysvectorfont="no"/>
<setting verticaltext="up"/>
</settings>
<grid distance="50" unitdist="mil" unit="mil" style="lines" multiple="1" display="no" altdistance="5" altunitdist="mil" altunit="mil"/>
<layers>
<layer number="1" name="Top" color="4" fill="1" visible="yes" active="yes"/>
<layer number="16" name="Bottom" color="1" fill="1" visible="yes" active="yes"/>
<layer number="17" name="Pads" color="2" fill="1" visible="yes" active="yes"/>
<layer number="18" name="Vias" color="2" fill="1" visible="yes" active="yes"/>
<layer number="19" name="Unrouted" color="6" fill="1" visible="yes" active="yes"/>
<layer number="20" name="Dimension" color="24" fill="1" visible="yes" active="yes"/>
<layer number="21" name="tPlace" color="7" fill="1" visible="yes" active="yes"/>
<layer number="22" name="bPlace" color="7" fill="1" visible="yes" active="yes"/>
<layer number="23" name="tOrigins" color="15" fill="1" visible="yes" active="yes"/>
<layer number="24" name="bOrigins" color="15" fill="1" visible="yes" active="yes"/>
<layer number="25" name="tNames" color="7" fill="1" visible="yes" active="yes"/>
<layer number="26" name="bNames" color="7" fill="1" visible="yes" active="yes"/>
<layer number="27" name="tValues" color="7" fill="1" visible="yes" active="yes"/>
<layer number="28" name="bValues" color="7" fill="1" visible="yes" active="yes"/>
<layer number="29" name="tStop" color="7" fill="3" visible="no" active="yes"/>
<layer number="30" name="bStop" color="7" fill="6" visible="no" active="yes"/>
<layer number="31" name="tCream" color="7" fill="4" visible="no" active="yes"/>
<layer number="32" name="bCream" color="7" fill="5" visible="no" active="yes"/>
<layer number="33" name="tFinish" color="6" fill="3" visible="no" active="yes"/>
<layer number="34" name="bFinish" color="6" fill="6" visible="no" active="yes"/>
<layer number="35" name="tGlue" color="7" fill="4" visible="no" active="yes"/>
<layer number="36" name="bGlue" color="7" fill="5" visible="no" active="yes"/>
<layer number="37" name="tTest" color="7" fill="1" visible="no" active="yes"/>
<layer number="38" name="bTest" color="7" fill="1" visible="no" active="yes"/>
<layer number="39" name="tKeepout" color="4" fill="11" visible="yes" active="yes"/>
<layer number="40" name="bKeepout" color="1" fill="11" visible="yes" active="yes"/>
<layer number="41" name="tRestrict" color="4" fill="10" visible="yes" active="yes"/>
<layer number="42" name="bRestrict" color="1" fill="10" visible="yes" active="yes"/>
<layer number="43" name="vRestrict" color="2" fill="10" visible="yes" active="yes"/>
<layer number="44" name="Drills" color="7" fill="1" visible="no" active="yes"/>
<layer number="45" name="Holes" color="7" fill="1" visible="yes" active="yes"/>
<layer number="46" name="Milling" color="3" fill="1" visible="no" active="yes"/>
<layer number="47" name="Measures" color="7" fill="1" visible="no" active="yes"/>
<layer number="48" name="Document" color="7" fill="1" visible="yes" active="yes"/>
<layer number="49" name="Reference" color="7" fill="1" visible="yes" active="yes"/>
<layer number="50" name="dxf" color="7" fill="1" visible="no" active="no"/>
<layer number="51" name="tDocu" color="7" fill="1" visible="yes" active="yes"/>
<layer number="52" name="bDocu" color="7" fill="1" visible="yes" active="yes"/>
<layer number="53" name="tGND_GNDA" color="7" fill="9" visible="no" active="no"/>
<layer number="54" name="bGND_GNDA" color="1" fill="9" visible="no" active="no"/>
<layer number="56" name="wert" color="7" fill="1" visible="no" active="no"/>
<layer number="88" name="SimResults" color="9" fill="1" visible="no" active="no"/>
<layer number="89" name="SimProbes" color="9" fill="1" visible="no" active="no"/>
<layer number="90" name="Modules" color="5" fill="1" visible="no" active="no"/>
<layer number="91" name="Nets" color="2" fill="1" visible="no" active="no"/>
<layer number="92" name="Busses" color="1" fill="1" visible="no" active="no"/>
<layer number="93" name="Pins" color="2" fill="1" visible="no" active="no"/>
<layer number="94" name="Symbols" color="4" fill="1" visible="no" active="no"/>
<layer number="95" name="Names" color="7" fill="1" visible="no" active="no"/>
<layer number="96" name="Values" color="7" fill="1" visible="no" active="no"/>
<layer number="97" name="Info" color="7" fill="1" visible="no" active="no"/>
<layer number="98" name="Guide" color="6" fill="1" visible="no" active="no"/>
<layer number="100" name="Muster" color="7" fill="1" visible="no" active="no"/>
<layer number="101" name="Patch_Top" color="12" fill="4" visible="yes" active="yes"/>
<layer number="102" name="Vscore" color="7" fill="1" visible="yes" active="yes"/>
<layer number="103" name="tMap" color="7" fill="1" visible="yes" active="yes"/>
<layer number="104" name="Name" color="7" fill="1" visible="yes" active="yes"/>
<layer number="105" name="tPlate" color="7" fill="1" visible="yes" active="yes"/>
<layer number="106" name="bPlate" color="7" fill="1" visible="yes" active="yes"/>
<layer number="107" name="Crop" color="7" fill="1" visible="yes" active="yes"/>
<layer number="116" name="Patch_BOT" color="9" fill="4" visible="yes" active="yes"/>
<layer number="121" name="_tsilk" color="7" fill="1" visible="yes" active="yes"/>
<layer number="122" name="_bsilk" color="7" fill="1" visible="yes" active="yes"/>
<layer number="125" name="_tNames" color="7" fill="1" visible="yes" active="yes"/>
<layer number="144" name="Drill_legend" color="7" fill="1" visible="yes" active="yes"/>
<layer number="151" name="HeatSink" color="7" fill="1" visible="yes" active="yes"/>
<layer number="200" name="200bmp" color="1" fill="10" visible="yes" active="yes"/>
<layer number="201" name="201bmp" color="2" fill="1" visible="no" active="no"/>
<layer number="202" name="202bmp" color="3" fill="1" visible="no" active="no"/>
<layer number="203" name="203bmp" color="4" fill="10" visible="yes" active="yes"/>
<layer number="204" name="204bmp" color="5" fill="10" visible="yes" active="yes"/>
<layer number="205" name="205bmp" color="6" fill="10" visible="yes" active="yes"/>
<layer number="206" name="206bmp" color="7" fill="10" visible="yes" active="yes"/>
<layer number="207" name="207bmp" color="8" fill="10" visible="yes" active="yes"/>
<layer number="208" name="208bmp" color="9" fill="10" visible="yes" active="yes"/>
<layer number="209" name="209bmp" color="7" fill="1" visible="yes" active="yes"/>
<layer number="210" name="210bmp" color="7" fill="1" visible="yes" active="yes"/>
<layer number="211" name="211bmp" color="7" fill="1" visible="yes" active="yes"/>
<layer number="212" name="212bmp" color="7" fill="1" visible="yes" active="yes"/>
<layer number="213" name="213bmp" color="7" fill="1" visible="yes" active="yes"/>
<layer number="214" name="214bmp" color="7" fill="1" visible="yes" active="yes"/>
<layer number="215" name="215bmp" color="7" fill="1" visible="yes" active="yes"/>
<layer number="216" name="216bmp" color="7" fill="1" visible="yes" active="yes"/>
<layer number="250" name="Descript" color="3" fill="1" visible="no" active="no"/>
<layer number="251" name="SMDround" color="12" fill="11" visible="no" active="no"/>
<layer number="254" name="cooling" color="7" fill="1" visible="yes" active="yes"/>
</layers>
<board>
<plain>
<wire x1="9.017" y1="0" x2="82.22" y2="0" width="0" layer="20"/>
<wire x1="82.22" y1="0" x2="82.22" y2="88.9" width="0" layer="20"/>
<wire x1="82.22" y1="88.9" x2="9.017" y2="88.9" width="0" layer="20"/>
<wire x1="9.017" y1="88.9" x2="5.969" y2="85.852" width="0" layer="20"/>
<wire x1="5.969" y1="85.852" x2="3.429" y2="85.852" width="0" layer="20"/>
<wire x1="3.429" y1="85.852" x2="3.429" y2="3.048" width="0" layer="20"/>
<wire x1="3.429" y1="3.048" x2="5.969" y2="3.048" width="0" layer="20"/>
<wire x1="5.969" y1="3.048" x2="9.017" y2="0" width="0" layer="20"/>
<text x="50.8" y="41.91" size="1.4224" layer="21" font="vector" rot="SR270" align="top-left">pc1-xt.autumnhippo.com</text>
<text x="52.07" y="41.91" size="2.54" layer="21" font="vector" rot="SR270">PC1-XT v0.2</text>
<text x="21.59" y="44.45" size="2.1844" layer="21" font="vector" rot="SR270" align="center">This side up</text>
<wire x1="71.12" y1="72.39" x2="69.85" y2="72.39" width="0.2032" layer="21"/>
<wire x1="69.85" y1="72.39" x2="64.77" y2="72.39" width="0.2032" layer="21"/>
<wire x1="71.12" y1="69.85" x2="71.12" y2="69.596" width="0.1524" layer="21"/>
<wire x1="71.12" y1="69.596" x2="71.12" y2="69.342" width="0.1524" layer="21"/>
<wire x1="71.12" y1="69.342" x2="71.12" y2="69.088" width="0.1524" layer="21"/>
<wire x1="71.12" y1="69.088" x2="71.12" y2="68.834" width="0.1524" layer="21"/>
<wire x1="71.12" y1="68.834" x2="71.12" y2="68.58" width="0.1524" layer="21"/>
<wire x1="71.12" y1="68.58" x2="71.12" y2="68.326" width="0.1524" layer="21"/>
<wire x1="71.12" y1="68.326" x2="71.12" y2="68.072" width="0.1524" layer="21"/>
<wire x1="71.12" y1="68.072" x2="71.12" y2="67.818" width="0.1524" layer="21"/>
<wire x1="71.12" y1="67.818" x2="71.12" y2="67.564" width="0.1524" layer="21"/>
<wire x1="71.12" y1="67.564" x2="71.12" y2="67.31" width="0.1524" layer="21"/>
<wire x1="71.12" y1="67.31" x2="71.12" y2="67.056" width="0.1524" layer="21"/>
<wire x1="71.12" y1="67.056" x2="71.12" y2="66.802" width="0.1524" layer="21"/>
<wire x1="71.12" y1="66.802" x2="71.12" y2="66.548" width="0.1524" layer="21"/>
<wire x1="71.12" y1="66.548" x2="71.12" y2="66.294" width="0.1524" layer="21"/>
<wire x1="71.12" y1="66.294" x2="71.12" y2="66.04" width="0.1524" layer="21"/>
<wire x1="71.12" y1="66.04" x2="71.12" y2="65.786" width="0.1524" layer="21"/>
<wire x1="71.12" y1="65.786" x2="71.12" y2="65.532" width="0.1524" layer="21"/>
<wire x1="71.12" y1="65.532" x2="71.12" y2="65.278" width="0.1524" layer="21"/>
<wire x1="71.12" y1="65.278" x2="71.12" y2="65.024" width="0.1524" layer="21"/>
<wire x1="71.12" y1="65.024" x2="71.12" y2="64.77" width="0.1524" layer="21"/>
<wire x1="64.77" y1="63.5" x2="69.85" y2="63.5" width="0.1524" layer="21"/>
<wire x1="64.77" y1="72.39" x2="64.77" y2="63.5" width="0.1524" layer="21"/>
<wire x1="64.77" y1="72.39" x2="64.516" y2="72.39" width="0.2032" layer="21"/>
<wire x1="64.516" y1="72.39" x2="64.516" y2="73.66" width="0.2032" layer="21"/>
<text x="63.5" y="81.28" size="2.1844" layer="21" font="vector" rot="SR270" align="top-left">← Card back end</text>
<wire x1="65.786" y1="71.12" x2="66.04" y2="71.12" width="0.1524" layer="21"/>
<wire x1="66.04" y1="71.12" x2="66.421" y2="71.12" width="0.1524" layer="21"/>
<wire x1="66.421" y1="71.12" x2="66.802" y2="71.12" width="0.1524" layer="21"/>
<wire x1="66.802" y1="71.12" x2="67.183" y2="71.12" width="0.1524" layer="21"/>
<wire x1="67.183" y1="71.12" x2="67.564" y2="71.12" width="0.1524" layer="21"/>
<wire x1="67.564" y1="71.12" x2="67.945" y2="71.12" width="0.1524" layer="21"/>
<wire x1="67.945" y1="71.12" x2="68.326" y2="71.12" width="0.1524" layer="21"/>
<wire x1="68.326" y1="71.12" x2="68.58" y2="71.12" width="0.1524" layer="21"/>
<wire x1="68.58" y1="71.12" x2="68.58" y2="69.85" width="0.1524" layer="21"/>
<wire x1="68.58" y1="69.85" x2="68.326" y2="69.85" width="0.1524" layer="21"/>
<wire x1="68.326" y1="69.85" x2="67.945" y2="69.85" width="0.1524" layer="21"/>
<wire x1="67.945" y1="69.85" x2="67.564" y2="69.85" width="0.1524" layer="21"/>
<wire x1="67.564" y1="69.85" x2="67.183" y2="69.85" width="0.1524" layer="21"/>
<wire x1="67.183" y1="69.85" x2="66.802" y2="69.85" width="0.1524" layer="21"/>
<wire x1="66.802" y1="69.85" x2="66.421" y2="69.85" width="0.1524" layer="21"/>
<wire x1="66.421" y1="69.85" x2="66.04" y2="69.85" width="0.1524" layer="21"/>
<wire x1="66.04" y1="69.85" x2="65.786" y2="69.85" width="0.1524" layer="21"/>
<wire x1="65.786" y1="69.85" x2="65.786" y2="71.12" width="0.1524" layer="21"/>
<wire x1="65.532" y1="68.58" x2="65.532" y2="68.326" width="0.1524" layer="21"/>
<wire x1="65.532" y1="68.326" x2="65.532" y2="67.945" width="0.1524" layer="21"/>
<wire x1="65.532" y1="67.945" x2="65.532" y2="67.564" width="0.1524" layer="21"/>
<wire x1="65.532" y1="67.564" x2="65.532" y2="67.183" width="0.1524" layer="21"/>
<wire x1="65.532" y1="67.183" x2="65.532" y2="66.802" width="0.1524" layer="21"/>
<wire x1="65.532" y1="66.802" x2="65.532" y2="66.421" width="0.1524" layer="21"/>
<wire x1="65.532" y1="66.421" x2="65.532" y2="66.04" width="0.1524" layer="21"/>
<wire x1="65.532" y1="66.04" x2="65.532" y2="65.659" width="0.1524" layer="21"/>
<wire x1="65.532" y1="65.659" x2="65.532" y2="65.278" width="0.1524" layer="21"/>
<wire x1="65.532" y1="65.278" x2="65.532" y2="64.897" width="0.1524" layer="21"/>
<wire x1="65.532" y1="64.897" x2="66.802" y2="64.897" width="0.1524" layer="21"/>
<wire x1="66.802" y1="64.897" x2="66.802" y2="65.278" width="0.1524" layer="21"/>
<wire x1="66.802" y1="65.278" x2="66.802" y2="65.659" width="0.1524" layer="21"/>
<wire x1="66.802" y1="65.659" x2="66.802" y2="66.04" width="0.1524" layer="21"/>
<wire x1="66.802" y1="66.04" x2="66.802" y2="66.421" width="0.1524" layer="21"/>
<wire x1="66.802" y1="66.421" x2="66.802" y2="66.802" width="0.1524" layer="21"/>
<wire x1="66.802" y1="66.802" x2="66.802" y2="67.564" width="0.1524" layer="21"/>
<wire x1="66.802" y1="67.564" x2="66.802" y2="67.945" width="0.1524" layer="21"/>
<wire x1="66.802" y1="67.945" x2="66.802" y2="68.326" width="0.1524" layer="21"/>
<wire x1="66.802" y1="68.326" x2="66.802" y2="68.58" width="0.1524" layer="21"/>
<wire x1="66.802" y1="68.58" x2="65.532" y2="68.58" width="0.1524" layer="21"/>
<wire x1="67.945" y1="66.167" x2="67.945" y2="66.421" width="0.1524" layer="21"/>
<wire x1="67.945" y1="66.421" x2="67.945" y2="66.802" width="0.1524" layer="21"/>
<wire x1="67.945" y1="66.802" x2="67.945" y2="67.183" width="0.1524" layer="21"/>
<wire x1="67.945" y1="67.183" x2="67.945" y2="67.564" width="0.1524" layer="21"/>
<wire x1="67.945" y1="67.564" x2="67.945" y2="67.945" width="0.1524" layer="21"/>
<wire x1="67.945" y1="67.945" x2="67.945" y2="68.326" width="0.1524" layer="21"/>
<wire x1="67.945" y1="68.326" x2="67.945" y2="68.58" width="0.1524" layer="21"/>
<wire x1="67.945" y1="68.58" x2="69.215" y2="68.58" width="0.1524" layer="21"/>
<wire x1="67.945" y1="66.167" x2="69.215" y2="66.167" width="0.1524" layer="21"/>
<wire x1="69.215" y1="66.167" x2="69.215" y2="66.421" width="0.1524" layer="21"/>
<wire x1="69.215" y1="66.421" x2="69.215" y2="66.802" width="0.1524" layer="21"/>
<wire x1="69.215" y1="66.802" x2="69.215" y2="67.183" width="0.1524" layer="21"/>
<wire x1="69.215" y1="67.183" x2="69.215" y2="67.564" width="0.1524" layer="21"/>
<wire x1="69.215" y1="67.564" x2="69.215" y2="67.945" width="0.1524" layer="21"/>
<wire x1="69.215" y1="67.945" x2="69.215" y2="68.326" width="0.1524" layer="21"/>
<wire x1="69.215" y1="68.326" x2="69.215" y2="68.58" width="0.1524" layer="21"/>
<wire x1="69.85" y1="63.5" x2="69.85" y2="64.77" width="0.1524" layer="21"/>
<wire x1="69.85" y1="64.77" x2="71.12" y2="64.77" width="0.1524" layer="21"/>
<wire x1="71.12" y1="69.85" x2="69.85" y2="69.85" width="0.1524" layer="21"/>
<wire x1="69.85" y1="69.85" x2="69.85" y2="72.39" width="0.1524" layer="21"/>
<hole x="12" y="85.5" drill="3"/>
<hole x="66" y="85.445" drill="3"/>
<hole x="12" y="3.5" drill="3"/>
<hole x="66" y="3.5" drill="3"/>
<wire x1="71.12" y1="69.596" x2="70.104" y2="69.596" width="0.1524" layer="21"/>
<wire x1="71.12" y1="69.342" x2="70.104" y2="69.342" width="0.1524" layer="21"/>
<wire x1="71.12" y1="69.088" x2="70.104" y2="69.088" width="0.1524" layer="21"/>
<wire x1="71.12" y1="68.834" x2="70.104" y2="68.834" width="0.1524" layer="21"/>
<wire x1="71.12" y1="68.58" x2="70.104" y2="68.58" width="0.1524" layer="21"/>
<wire x1="71.12" y1="68.326" x2="70.104" y2="68.326" width="0.1524" layer="21"/>
<wire x1="71.12" y1="68.072" x2="70.104" y2="68.072" width="0.1524" layer="21"/>
<wire x1="71.12" y1="67.818" x2="70.104" y2="67.818" width="0.1524" layer="21"/>
<wire x1="71.12" y1="67.564" x2="70.104" y2="67.564" width="0.1524" layer="21"/>
<wire x1="71.12" y1="67.31" x2="70.104" y2="67.31" width="0.1524" layer="21"/>
<wire x1="71.12" y1="67.056" x2="70.104" y2="67.056" width="0.1524" layer="21"/>
<wire x1="71.12" y1="66.802" x2="70.104" y2="66.802" width="0.1524" layer="21"/>
<wire x1="71.12" y1="66.548" x2="70.104" y2="66.548" width="0.1524" layer="21"/>
<wire x1="71.12" y1="66.294" x2="70.104" y2="66.294" width="0.1524" layer="21"/>
<wire x1="71.12" y1="66.04" x2="70.104" y2="66.04" width="0.1524" layer="21"/>
<wire x1="71.12" y1="65.786" x2="70.104" y2="65.786" width="0.1524" layer="21"/>
<wire x1="71.12" y1="65.532" x2="70.104" y2="65.532" width="0.1524" layer="21"/>
<wire x1="71.12" y1="65.278" x2="70.104" y2="65.278" width="0.1524" layer="21"/>
<wire x1="71.12" y1="65.024" x2="70.104" y2="65.024" width="0.1524" layer="21"/>
<wire x1="69.469" y1="68.326" x2="69.215" y2="68.326" width="0.1524" layer="21"/>
<wire x1="69.469" y1="67.945" x2="69.215" y2="67.945" width="0.1524" layer="21"/>
<wire x1="69.469" y1="67.564" x2="69.215" y2="67.564" width="0.1524" layer="21"/>
<wire x1="69.469" y1="67.183" x2="69.215" y2="67.183" width="0.1524" layer="21"/>
<wire x1="69.469" y1="66.802" x2="69.215" y2="66.802" width="0.1524" layer="21"/>
<wire x1="69.469" y1="66.421" x2="69.215" y2="66.421" width="0.1524" layer="21"/>
<wire x1="67.691" y1="68.326" x2="67.945" y2="68.326" width="0.1524" layer="21"/>
<wire x1="67.691" y1="67.945" x2="67.945" y2="67.945" width="0.1524" layer="21"/>
<wire x1="67.691" y1="67.564" x2="67.945" y2="67.564" width="0.1524" layer="21"/>
<wire x1="67.691" y1="67.183" x2="67.945" y2="67.183" width="0.1524" layer="21"/>
<wire x1="67.691" y1="66.802" x2="67.945" y2="66.802" width="0.1524" layer="21"/>
<wire x1="67.691" y1="66.421" x2="67.945" y2="66.421" width="0.1524" layer="21"/>
<wire x1="66.802" y1="68.326" x2="67.056" y2="68.326" width="0.1524" layer="21"/>
<wire x1="66.802" y1="67.945" x2="67.056" y2="67.945" width="0.1524" layer="21"/>
<wire x1="66.802" y1="67.564" x2="67.056" y2="67.564" width="0.1524" layer="21"/>
<wire x1="66.929" y1="67.183" x2="67.056" y2="67.183" width="0.1524" layer="21"/>
<wire x1="66.802" y1="66.802" x2="67.056" y2="66.802" width="0.1524" layer="21"/>
<wire x1="66.802" y1="66.421" x2="67.056" y2="66.421" width="0.1524" layer="21"/>
<wire x1="66.802" y1="66.04" x2="67.056" y2="66.04" width="0.1524" layer="21"/>
<wire x1="66.802" y1="65.659" x2="67.056" y2="65.659" width="0.1524" layer="21"/>
<wire x1="66.802" y1="65.278" x2="67.056" y2="65.278" width="0.1524" layer="21"/>
<wire x1="65.532" y1="68.326" x2="65.278" y2="68.326" width="0.1524" layer="21"/>
<wire x1="65.532" y1="67.945" x2="65.278" y2="67.945" width="0.1524" layer="21"/>
<wire x1="65.532" y1="67.564" x2="65.278" y2="67.564" width="0.1524" layer="21"/>
<wire x1="65.532" y1="67.183" x2="65.278" y2="67.183" width="0.1524" layer="21"/>
<wire x1="65.532" y1="66.802" x2="65.278" y2="66.802" width="0.1524" layer="21"/>
<wire x1="65.532" y1="66.421" x2="65.278" y2="66.421" width="0.1524" layer="21"/>
<wire x1="65.532" y1="66.04" x2="65.278" y2="66.04" width="0.1524" layer="21"/>
<wire x1="65.532" y1="65.659" x2="65.278" y2="65.659" width="0.1524" layer="21"/>
<wire x1="65.532" y1="65.278" x2="65.278" y2="65.278" width="0.1524" layer="21"/>
<wire x1="68.326" y1="69.85" x2="68.326" y2="69.596" width="0.1524" layer="21"/>
<wire x1="67.945" y1="69.85" x2="67.945" y2="69.596" width="0.1524" layer="21"/>
<wire x1="67.564" y1="69.85" x2="67.564" y2="69.596" width="0.1524" layer="21"/>
<wire x1="67.183" y1="69.85" x2="67.183" y2="69.596" width="0.1524" layer="21"/>
<wire x1="66.802" y1="69.85" x2="66.802" y2="69.596" width="0.1524" layer="21"/>
<wire x1="66.421" y1="69.85" x2="66.421" y2="69.596" width="0.1524" layer="21"/>
<wire x1="66.04" y1="69.85" x2="66.04" y2="69.596" width="0.1524" layer="21"/>
<wire x1="68.326" y1="71.12" x2="68.326" y2="71.374" width="0.1524" layer="21"/>
<wire x1="67.945" y1="71.12" x2="67.945" y2="71.374" width="0.1524" layer="21"/>
<wire x1="67.564" y1="71.12" x2="67.564" y2="71.374" width="0.1524" layer="21"/>
<wire x1="67.183" y1="71.12" x2="67.183" y2="71.374" width="0.1524" layer="21"/>
<wire x1="66.802" y1="71.12" x2="66.802" y2="71.374" width="0.1524" layer="21"/>
<wire x1="66.421" y1="71.12" x2="66.421" y2="71.374" width="0.1524" layer="21"/>
<wire x1="66.04" y1="71.12" x2="66.04" y2="71.374" width="0.1524" layer="21"/>
<wire x1="67.945" y1="65.405" x2="68.199" y2="65.405" width="0.1524" layer="21"/>
<wire x1="67.945" y1="65.024" x2="68.199" y2="65.024" width="0.1524" layer="21"/>
<wire x1="67.945" y1="64.643" x2="68.199" y2="64.643" width="0.1524" layer="21"/>
<wire x1="68.707" y1="65.405" x2="68.961" y2="65.405" width="0.1524" layer="21"/>
<wire x1="68.707" y1="65.024" x2="68.961" y2="65.024" width="0.1524" layer="21"/>
<wire x1="68.707" y1="64.643" x2="68.961" y2="64.643" width="0.1524" layer="21"/>
<wire x1="66.421" y1="64.262" x2="66.929" y2="64.262" width="0.1524" layer="21"/>
<wire x1="66.929" y1="64.262" x2="66.929" y2="64.008" width="0.1524" layer="21"/>
<wire x1="66.929" y1="64.008" x2="66.421" y2="64.008" width="0.1524" layer="21"/>
<wire x1="66.421" y1="64.008" x2="66.421" y2="64.262" width="0.1524" layer="21"/>
<wire x1="65.913" y1="64.262" x2="65.913" y2="64.008" width="0.1524" layer="21"/>
<wire x1="65.913" y1="64.008" x2="65.405" y2="64.008" width="0.1524" layer="21"/>
<wire x1="65.405" y1="64.008" x2="65.405" y2="64.262" width="0.1524" layer="21"/>
<wire x1="65.405" y1="64.262" x2="65.913" y2="64.262" width="0.1524" layer="21"/>
<text x="72.39" y="44.45" size="1.778" layer="21" font="vector" rot="SR270" align="top-center">PC/XT/ISA card</text>
<text x="12.7" y="44.45" size="1.778" layer="21" font="vector" rot="SR270" align="bottom-center">PC1 computer</text>
<text x="5.588" y="7.62" size="1.27" layer="21" align="center-left">A30</text>
<text x="5.588" y="81.28" size="1.27" layer="21" align="center-left">A1</text>
<text x="24.13" y="44.45" size="2.1844" layer="22" font="vector" rot="MR270" align="center">This side down</text>
<dimension x1="12" y1="91.44" x2="66" y2="91.44" x3="39" y3="96.52" textsize="1.778" layer="51" visible="yes"/>
<dimension x1="1.27" y1="85.5" x2="1.27" y2="3.5" x3="-15.24" y3="44.5" textsize="1.778" layer="51" visible="yes"/>
<text x="79.502" y="82.55" size="1.27" layer="21" align="center-right">A1</text>
<text x="79.502" y="6.35" size="1.27" layer="21" align="center-right">A31</text>
<dimension x1="83.82" y1="88.9" x2="83.82" y2="0" x3="88.9" y3="44.45" textsize="1.778" layer="51" visible="yes"/>
<dimension x1="3.429" y1="-2.54" x2="82.22" y2="-2.54" x3="42.8245" y3="-7.62" textsize="1.778" layer="51" visible="yes"/>
<text x="44.45" y="41.91" size="1.4224" layer="21" rot="SR270" align="top-left">Heavily inspired by
MIGs Yesterchips</text>
</plain>
<libraries>
<library name="Thomas">
<packages>
<package name="CARDEDGE_FEMALE_62PINS_8BITISA_STRAIGHT">
<pad name="B1" x="2.54" y="-1.27" drill="0.75"/>
<pad name="B2" x="2.54" y="-3.81" drill="0.75"/>
<pad name="B3" x="2.54" y="-6.35" drill="0.75"/>
<pad name="B4" x="2.54" y="-8.89" drill="0.75"/>
<pad name="B5" x="2.54" y="-11.43" drill="0.75"/>
<pad name="B6" x="2.54" y="-13.97" drill="0.75"/>
<pad name="B7" x="2.54" y="-16.51" drill="0.75"/>
<pad name="B8" x="2.54" y="-19.05" drill="0.75"/>
<pad name="B9" x="2.54" y="-21.59" drill="0.75"/>
<pad name="B10" x="2.54" y="-24.13" drill="0.75"/>
<pad name="B11" x="2.54" y="-26.67" drill="0.75"/>
<pad name="B12" x="2.54" y="-29.21" drill="0.75"/>
<pad name="B13" x="2.54" y="-31.75" drill="0.75"/>
<pad name="B14" x="2.54" y="-34.29" drill="0.75"/>
<pad name="B15" x="2.54" y="-36.83" drill="0.75"/>
<pad name="B16" x="2.54" y="-39.37" drill="0.75"/>
<pad name="B17" x="2.54" y="-41.91" drill="0.75"/>
<pad name="B18" x="2.54" y="-44.45" drill="0.75"/>
<pad name="B19" x="2.54" y="-46.99" drill="0.75"/>
<pad name="B20" x="2.54" y="-49.53" drill="0.75"/>
<pad name="B21" x="2.54" y="-52.07" drill="0.75"/>
<pad name="B22" x="2.54" y="-54.61" drill="0.75"/>
<pad name="B23" x="2.54" y="-57.15" drill="0.75"/>
<pad name="B24" x="2.54" y="-59.69" drill="0.75"/>
<pad name="B25" x="2.54" y="-62.23" drill="0.75"/>
<pad name="B26" x="2.54" y="-64.77" drill="0.75"/>
<pad name="B27" x="2.54" y="-67.31" drill="0.75"/>
<pad name="B28" x="2.54" y="-69.85" drill="0.75"/>
<pad name="B29" x="2.54" y="-72.39" drill="0.75"/>
<pad name="B30" x="2.54" y="-74.93" drill="0.75"/>
<pad name="B31" x="2.54" y="-77.47" drill="0.75"/>
<pad name="A1" x="7.62" y="-1.27" drill="0.75"/>
<pad name="A2" x="7.62" y="-3.81" drill="0.75"/>
<pad name="A3" x="7.62" y="-6.35" drill="0.75"/>
<pad name="A4" x="7.62" y="-8.89" drill="0.75"/>
<pad name="A5" x="7.62" y="-11.43" drill="0.75"/>
<pad name="A6" x="7.62" y="-13.97" drill="0.75"/>
<pad name="A7" x="7.62" y="-16.51" drill="0.75"/>
<pad name="A8" x="7.62" y="-19.05" drill="0.75"/>
<pad name="A9" x="7.62" y="-21.59" drill="0.75"/>
<pad name="A10" x="7.62" y="-24.13" drill="0.75"/>
<pad name="A11" x="7.62" y="-26.67" drill="0.75"/>
<pad name="A12" x="7.62" y="-29.21" drill="0.75"/>
<pad name="A13" x="7.62" y="-31.75" drill="0.75"/>
<pad name="A14" x="7.62" y="-34.29" drill="0.75"/>
<pad name="A15" x="7.62" y="-36.83" drill="0.75"/>
<pad name="A16" x="7.62" y="-39.37" drill="0.75"/>
<pad name="A17" x="7.62" y="-41.91" drill="0.75"/>
<pad name="A18" x="7.62" y="-44.45" drill="0.75"/>
<pad name="A19" x="7.62" y="-46.99" drill="0.75"/>
<pad name="A20" x="7.62" y="-49.53" drill="0.75"/>
<pad name="A21" x="7.62" y="-52.07" drill="0.75"/>
<pad name="A22" x="7.62" y="-54.61" drill="0.75"/>
<pad name="A23" x="7.62" y="-57.15" drill="0.75"/>
<pad name="A24" x="7.62" y="-59.69" drill="0.75"/>
<pad name="A25" x="7.62" y="-62.23" drill="0.75"/>
<pad name="A26" x="7.62" y="-64.77" drill="0.75"/>
<pad name="A27" x="7.62" y="-67.31" drill="0.75"/>
<pad name="A28" x="7.62" y="-69.85" drill="0.75"/>
<pad name="A29" x="7.62" y="-72.39" drill="0.75"/>
<pad name="A30" x="7.62" y="-74.93" drill="0.75"/>
<pad name="A31" x="7.62" y="-77.47" drill="0.75"/>
<rectangle x1="0.635" y1="-81.915" x2="9.635" y2="3.285" layer="39"/>
<wire x1="1.27" y1="0" x2="8.89" y2="0" width="0.127" layer="21"/>
<wire x1="8.89" y1="0" x2="8.89" y2="-78.74" width="0.127" layer="21"/>
<wire x1="8.89" y1="-78.74" x2="1.27" y2="-78.74" width="0.127" layer="21"/>
<wire x1="1.27" y1="-78.74" x2="1.27" y2="0" width="0.127" layer="21"/>
<text x="11.43" y="-19.05" size="1.27" layer="21" rot="R90">&gt;NAME</text>
<text x="1.016" y="-1.27" size="1.27" layer="21" align="center-right">B1</text>
<text x="1.016" y="-77.47" size="1.27" layer="21" align="center-right">B31</text>
<text x="9.144" y="-1.27" size="1.27" layer="21" align="center-left">A1</text>
<text x="9.144" y="-77.47" size="1.27" layer="21" align="center-left">A31</text>
</package>
<package name="CARDEDGE_FEMALE_60PINS_PC1_ANGLEDLEFT">
<pad name="B1" x="7.62" y="-1.27" drill="0.75"/>
<pad name="B2" x="7.62" y="-3.81" drill="0.75"/>
<pad name="B3" x="7.62" y="-6.35" drill="0.75"/>
<pad name="B4" x="7.62" y="-8.89" drill="0.75"/>
<pad name="B5" x="7.62" y="-11.43" drill="0.75"/>
<pad name="B6" x="7.62" y="-13.97" drill="0.75"/>
<pad name="B7" x="7.62" y="-16.51" drill="0.75"/>
<pad name="B8" x="7.62" y="-19.05" drill="0.75"/>
<pad name="B9" x="7.62" y="-21.59" drill="0.75"/>
<pad name="B10" x="7.62" y="-24.13" drill="0.75"/>
<pad name="B11" x="7.62" y="-26.67" drill="0.75"/>
<pad name="B12" x="7.62" y="-29.21" drill="0.75"/>
<pad name="B13" x="7.62" y="-31.75" drill="0.75"/>
<pad name="B14" x="7.62" y="-34.29" drill="0.75"/>
<pad name="B15" x="7.62" y="-36.83" drill="0.75"/>
<pad name="B16" x="7.62" y="-39.37" drill="0.75"/>
<pad name="B17" x="7.62" y="-41.91" drill="0.75"/>
<pad name="B18" x="7.62" y="-44.45" drill="0.75"/>
<pad name="B19" x="7.62" y="-46.99" drill="0.75"/>
<pad name="B20" x="7.62" y="-49.53" drill="0.75"/>
<pad name="B21" x="7.62" y="-52.07" drill="0.75"/>
<pad name="B22" x="7.62" y="-54.61" drill="0.75"/>
<pad name="B23" x="7.62" y="-57.15" drill="0.75"/>
<pad name="B24" x="7.62" y="-59.69" drill="0.75"/>
<pad name="B25" x="7.62" y="-62.23" drill="0.75"/>
<pad name="B26" x="7.62" y="-64.77" drill="0.75"/>
<pad name="B27" x="7.62" y="-67.31" drill="0.75"/>
<pad name="B28" x="7.62" y="-69.85" drill="0.75"/>
<pad name="B29" x="7.62" y="-72.39" drill="0.75"/>
<pad name="B30" x="7.62" y="-74.93" drill="0.75"/>
<pad name="A1" x="2.54" y="-1.27" drill="0.75"/>
<pad name="A2" x="2.54" y="-3.81" drill="0.75"/>
<pad name="A3" x="2.54" y="-6.35" drill="0.75"/>
<pad name="A4" x="2.54" y="-8.89" drill="0.75"/>
<pad name="A5" x="2.54" y="-11.43" drill="0.75"/>
<pad name="A6" x="2.54" y="-13.97" drill="0.75"/>
<pad name="A7" x="2.54" y="-16.51" drill="0.75"/>
<pad name="A8" x="2.54" y="-19.05" drill="0.75"/>
<pad name="A9" x="2.54" y="-21.59" drill="0.75"/>
<pad name="A10" x="2.54" y="-24.13" drill="0.75"/>
<pad name="A11" x="2.54" y="-26.67" drill="0.75"/>
<pad name="A12" x="2.54" y="-29.21" drill="0.75"/>
<pad name="A13" x="2.54" y="-31.75" drill="0.75"/>
<pad name="A14" x="2.54" y="-34.29" drill="0.75"/>
<pad name="A15" x="2.54" y="-36.83" drill="0.75"/>
<pad name="A16" x="2.54" y="-39.37" drill="0.75"/>
<pad name="A17" x="2.54" y="-41.91" drill="0.75"/>
<pad name="A18" x="2.54" y="-44.45" drill="0.75"/>
<pad name="A19" x="2.54" y="-46.99" drill="0.75"/>
<pad name="A20" x="2.54" y="-49.53" drill="0.75"/>
<pad name="A21" x="2.54" y="-52.07" drill="0.75"/>
<pad name="A22" x="2.54" y="-54.61" drill="0.75"/>
<pad name="A23" x="2.54" y="-57.15" drill="0.75"/>
<pad name="A24" x="2.54" y="-59.69" drill="0.75"/>
<pad name="A25" x="2.54" y="-62.23" drill="0.75"/>
<pad name="A26" x="2.54" y="-64.77" drill="0.75"/>
<pad name="A27" x="2.54" y="-67.31" drill="0.75"/>
<pad name="A28" x="2.54" y="-69.85" drill="0.75"/>
<pad name="A29" x="2.54" y="-72.39" drill="0.75"/>
<pad name="A30" x="2.54" y="-74.93" drill="0.75"/>
<wire x1="1.27" y1="0" x2="2.54" y2="0" width="0.127" layer="21"/>
<wire x1="2.54" y1="0" x2="8.89" y2="0" width="0.127" layer="21"/>
<wire x1="8.89" y1="0" x2="8.89" y2="-76.2" width="0.127" layer="21"/>
<wire x1="8.89" y1="-76.2" x2="2.54" y2="-76.2" width="0.127" layer="21"/>
<wire x1="2.54" y1="-76.2" x2="1.27" y2="-76.2" width="0.127" layer="21"/>
<wire x1="1.27" y1="-76.2" x2="1.27" y2="0" width="0.127" layer="21"/>
<text x="11.43" y="-19.05" size="1.27" layer="21" rot="R90">&gt;NAME</text>
<text x="9.144" y="-1.27" size="1.27" layer="21" align="center-left">B1</text>
<text x="9.144" y="-74.93" size="1.27" layer="21" align="center-left">B30</text>
<text x="1.016" y="-1.27" size="1.27" layer="21" align="center-right">A1</text>
<text x="1.016" y="-74.93" size="1.27" layer="21" align="center-right">A30</text>
<rectangle x1="-11.4554" y1="-79.375" x2="2.54" y2="3.175" layer="39"/>
<rectangle x1="2.54" y1="-74.93" x2="7.62" y2="-1.27" layer="39"/>
<wire x1="2.54" y1="-76.2" x2="2.54" y2="-79.375" width="0.127" layer="21"/>
<wire x1="2.54" y1="-79.375" x2="-11.43" y2="-79.375" width="0.127" layer="21"/>
<wire x1="2.54" y1="0" x2="2.54" y2="3.175" width="0.127" layer="21"/>
<wire x1="2.54" y1="3.175" x2="-11.43" y2="3.175" width="0.127" layer="21"/>
</package>
<package name="PC-PWR_MALE_4PINS_VERTICAL">
<pad name="1_+12V" x="1.27" y="0" drill="1.905" shape="square"/>
<pad name="2_GND" x="-3.81" y="0" drill="1.905" shape="octagon"/>
<pad name="3_GND" x="-8.89" y="0" drill="1.905" shape="octagon"/>
<pad name="4_+5V" x="-13.97" y="0" drill="1.905" shape="octagon"/>
<rectangle x1="-19.05" y1="-5.5372" x2="6.35" y2="4.1148" layer="39"/>
<wire x1="-17.78" y1="-3.81" x2="-17.78" y2="1.27" width="0.127" layer="21"/>
<wire x1="-17.78" y1="1.27" x2="-15.24" y2="3.81" width="0.127" layer="21"/>
<wire x1="-15.24" y1="3.81" x2="2.54" y2="3.81" width="0.127" layer="21"/>
<wire x1="2.54" y1="3.81" x2="5.08" y2="1.27" width="0.127" layer="21"/>
<wire x1="5.08" y1="1.27" x2="5.08" y2="-3.81" width="0.127" layer="21"/>
<wire x1="5.08" y1="-3.81" x2="-17.78" y2="-3.81" width="0.127" layer="21"/>
<text x="-17.78" y="5.08" size="1.27" layer="21">&gt;NAME</text>
<text x="-15.24" y="-6.35" size="1.27" layer="21">+5V</text>
<text x="-10.16" y="-6.35" size="1.27" layer="21">GND</text>
<text x="-5.08" y="-6.35" size="1.27" layer="21">GND</text>
<text x="0" y="-6.35" size="1.27" layer="21">+12V</text>
</package>
<package name="AUTUMNHIPPO_LOGO_8MM">
<wire x1="-2.286" y1="5.207" x2="-2.159" y2="5.842" width="0.127" layer="21"/>
<wire x1="-2.159" y1="5.842" x2="-2.032" y2="6.223" width="0.127" layer="21"/>
<wire x1="-2.032" y1="6.223" x2="-1.905" y2="6.477" width="0.127" layer="21"/>
<wire x1="-1.905" y1="6.477" x2="-1.651" y2="6.858" width="0.127" layer="21"/>
<wire x1="-1.651" y1="6.858" x2="-1.524" y2="6.985" width="0.127" layer="21"/>
<wire x1="-1.524" y1="6.985" x2="-2.032" y2="7.366" width="0.127" layer="21"/>
<wire x1="-2.032" y1="7.366" x2="-2.159" y2="7.62" width="0.127" layer="21"/>
<wire x1="-2.159" y1="7.62" x2="-2.032" y2="7.874" width="0.127" layer="21"/>
<wire x1="-2.032" y1="7.874" x2="-1.778" y2="8.001" width="0.127" layer="21"/>
<wire x1="-1.778" y1="8.001" x2="-1.524" y2="8.001" width="0.127" layer="21"/>
<wire x1="-1.524" y1="8.001" x2="-1.27" y2="7.747" width="0.127" layer="21"/>
<wire x1="-1.27" y1="7.747" x2="-1.27" y2="7.239" width="0.127" layer="21"/>
<wire x1="-1.27" y1="7.239" x2="-1.016" y2="7.366" width="0.127" layer="21"/>
<wire x1="-1.016" y1="7.366" x2="-0.508" y2="7.493" width="0.127" layer="21"/>
<wire x1="-0.508" y1="7.493" x2="0.381" y2="7.493" width="0.127" layer="21"/>
<wire x1="0.381" y1="7.493" x2="0.889" y2="7.366" width="0.127" layer="21"/>
<wire x1="0.889" y1="7.366" x2="1.143" y2="7.239" width="0.127" layer="21"/>
<wire x1="1.143" y1="7.239" x2="1.143" y2="7.62" width="0.127" layer="21"/>
<wire x1="1.143" y1="7.62" x2="1.27" y2="7.874" width="0.127" layer="21"/>
<wire x1="1.27" y1="7.874" x2="1.524" y2="8.001" width="0.127" layer="21"/>
<wire x1="1.524" y1="8.001" x2="1.651" y2="8.001" width="0.127" layer="21"/>
<wire x1="1.651" y1="8.001" x2="1.905" y2="7.874" width="0.127" layer="21"/>
<wire x1="1.905" y1="7.874" x2="2.032" y2="7.62" width="0.127" layer="21"/>
<wire x1="2.032" y1="7.62" x2="1.905" y2="7.366" width="0.127" layer="21"/>
<wire x1="1.905" y1="7.366" x2="1.778" y2="7.239" width="0.127" layer="21"/>
<wire x1="1.778" y1="7.239" x2="1.397" y2="6.985" width="0.127" layer="21"/>
<wire x1="1.397" y1="6.985" x2="1.651" y2="6.731" width="0.127" layer="21"/>
<wire x1="1.651" y1="6.731" x2="1.905" y2="6.35" width="0.127" layer="21"/>
<wire x1="1.905" y1="6.35" x2="2.032" y2="5.969" width="0.127" layer="21"/>
<wire x1="2.032" y1="5.969" x2="2.159" y2="5.207" width="0.127" layer="21"/>
<wire x1="2.159" y1="5.207" x2="2.032" y2="5.334" width="0.1778" layer="21"/>
<wire x1="2.032" y1="5.334" x2="1.524" y2="5.588" width="0.1778" layer="21"/>
<wire x1="1.524" y1="5.588" x2="1.016" y2="5.715" width="0.1778" layer="21"/>
<wire x1="1.016" y1="5.715" x2="0" y2="5.842" width="0.1778" layer="21"/>
<wire x1="0" y1="5.842" x2="-0.254" y2="5.842" width="0.1778" layer="21"/>
<wire x1="-0.254" y1="5.842" x2="-1.143" y2="5.715" width="0.1778" layer="21"/>
<wire x1="-1.143" y1="5.715" x2="-1.905" y2="5.461" width="0.1778" layer="21"/>
<wire x1="-1.905" y1="5.461" x2="-2.413" y2="5.08" width="0.1778" layer="21"/>
<wire x1="-2.413" y1="5.08" x2="-2.54" y2="4.826" width="0.1778" layer="21"/>
<wire x1="-2.54" y1="4.826" x2="-2.667" y2="4.318" width="0.1778" layer="21"/>
<wire x1="-2.667" y1="4.318" x2="-2.54" y2="3.81" width="0.1778" layer="21"/>
<wire x1="-2.54" y1="3.81" x2="-2.286" y2="3.429" width="0.1778" layer="21"/>
<wire x1="-2.286" y1="3.429" x2="-1.905" y2="3.175" width="0.1778" layer="21"/>
<wire x1="-1.905" y1="3.175" x2="-1.27" y2="2.921" width="0.1778" layer="21"/>
<wire x1="-1.27" y1="2.921" x2="-0.762" y2="2.794" width="0.1778" layer="21"/>
<wire x1="-0.762" y1="2.794" x2="-0.508" y2="2.794" width="0.1778" layer="21"/>
<wire x1="-0.508" y1="2.794" x2="-0.635" y2="2.286" width="0.1778" layer="21"/>
<wire x1="-0.635" y1="2.286" x2="-1.016" y2="2.286" width="0.1778" layer="21"/>
<wire x1="-1.016" y1="2.286" x2="-1.651" y2="2.413" width="0.1778" layer="21"/>
<wire x1="-1.651" y1="2.413" x2="-1.905" y2="2.54" width="0.1778" layer="21"/>
<wire x1="-1.905" y1="2.54" x2="-2.032" y2="2.667" width="0.1778" layer="21"/>
<wire x1="-2.032" y1="2.667" x2="-2.032" y2="2.794" width="0.1778" layer="21"/>
<wire x1="-2.032" y1="2.794" x2="-1.905" y2="3.048" width="0.1778" layer="21"/>
<wire x1="-1.905" y1="3.048" x2="-0.635" y2="2.667" width="0.1778" layer="21"/>
<wire x1="-0.635" y1="2.667" x2="-0.762" y2="2.413" width="0.1778" layer="21"/>
<wire x1="-0.762" y1="2.413" x2="-1.651" y2="2.54" width="0.1778" layer="21"/>
<wire x1="-1.651" y1="2.54" x2="-1.905" y2="2.667" width="0.1778" layer="21"/>
<wire x1="-1.905" y1="2.667" x2="-1.905" y2="2.794" width="0.1778" layer="21"/>
<wire x1="-1.905" y1="2.794" x2="-1.905" y2="2.921" width="0.1778" layer="21"/>
<wire x1="-1.905" y1="2.921" x2="-0.762" y2="2.54" width="0.1778" layer="21"/>
<wire x1="-0.762" y1="2.54" x2="-1.651" y2="2.667" width="0.1778" layer="21"/>
<wire x1="-1.651" y1="2.667" x2="-1.905" y2="2.794" width="0.1778" layer="21"/>
<wire x1="2.159" y1="5.207" x2="2.413" y2="4.826" width="0.1778" layer="21"/>
<wire x1="2.413" y1="4.826" x2="2.54" y2="4.445" width="0.1778" layer="21"/>
<wire x1="2.54" y1="4.445" x2="2.54" y2="4.191" width="0.1778" layer="21"/>
<wire x1="2.54" y1="4.191" x2="2.413" y2="3.81" width="0.1778" layer="21"/>
<wire x1="2.413" y1="3.81" x2="2.159" y2="3.429" width="0.1778" layer="21"/>
<wire x1="2.159" y1="3.429" x2="1.397" y2="3.048" width="0.1778" layer="21"/>
<wire x1="1.397" y1="3.048" x2="1.016" y2="2.921" width="0.1778" layer="21"/>
<wire x1="1.016" y1="2.921" x2="0.762" y2="2.921" width="0.1778" layer="21"/>
<wire x1="0.762" y1="2.921" x2="0.762" y2="2.286" width="0.1778" layer="21"/>
<wire x1="0.762" y1="2.286" x2="1.397" y2="2.413" width="0.1778" layer="21"/>
<wire x1="1.397" y1="2.413" x2="1.778" y2="2.54" width="0.1778" layer="21"/>
<wire x1="1.778" y1="2.54" x2="2.032" y2="2.667" width="0.1778" layer="21"/>
<wire x1="2.032" y1="2.667" x2="2.159" y2="2.794" width="0.1778" layer="21"/>
<wire x1="2.159" y1="2.794" x2="2.159" y2="2.921" width="0.1778" layer="21"/>
<wire x1="2.159" y1="2.921" x2="2.032" y2="3.175" width="0.1778" layer="21"/>
<wire x1="2.032" y1="3.175" x2="2.032" y2="3.302" width="0.1778" layer="21"/>
<wire x1="2.032" y1="3.302" x2="1.143" y2="2.794" width="0.1778" layer="21"/>
<wire x1="1.143" y1="2.794" x2="0.889" y2="2.794" width="0.1778" layer="21"/>
<wire x1="0.889" y1="2.794" x2="0.889" y2="2.413" width="0.1778" layer="21"/>
<wire x1="0.889" y1="2.413" x2="2.032" y2="2.794" width="0.1778" layer="21"/>
<wire x1="2.032" y1="2.794" x2="1.905" y2="3.175" width="0.1778" layer="21"/>
<wire x1="1.905" y1="3.175" x2="1.143" y2="2.667" width="0.1778" layer="21"/>
<wire x1="1.143" y1="2.667" x2="1.016" y2="2.667" width="0.1778" layer="21"/>
<wire x1="1.016" y1="2.667" x2="1.016" y2="2.54" width="0.1778" layer="21"/>
<wire x1="1.016" y1="2.54" x2="1.905" y2="2.921" width="0.1778" layer="21"/>
<wire x1="1.905" y1="2.921" x2="1.905" y2="3.048" width="0.1778" layer="21"/>
<wire x1="1.905" y1="3.048" x2="1.651" y2="2.921" width="0.1778" layer="21"/>
<wire x1="2.032" y1="2.667" x2="2.159" y2="2.159" width="0.1778" layer="21"/>
<wire x1="2.159" y1="2.159" x2="2.159" y2="1.778" width="0.1778" layer="21"/>
<wire x1="2.159" y1="1.778" x2="2.159" y2="1.397" width="0.1778" layer="21"/>
<wire x1="2.159" y1="1.397" x2="2.032" y2="0.762" width="0.1778" layer="21"/>
<wire x1="2.032" y1="0.762" x2="1.905" y2="0.508" width="0.1778" layer="21"/>
<wire x1="1.905" y1="0.508" x2="1.778" y2="0.381" width="0.1778" layer="21"/>
<wire x1="1.778" y1="0.381" x2="1.27" y2="0.254" width="0.1778" layer="21"/>
<wire x1="1.27" y1="0.254" x2="0.762" y2="0.381" width="0.1778" layer="21"/>
<wire x1="0.762" y1="0.381" x2="0.508" y2="0.508" width="0.1778" layer="21"/>
<wire x1="0.508" y1="0.508" x2="0.508" y2="0.762" width="0.1778" layer="21"/>
<wire x1="1.016" y1="1.778" x2="1.016" y2="2.032" width="0.0762" layer="21"/>
<wire x1="0.508" y1="0.762" x2="0.635" y2="1.016" width="0.1524" layer="21"/>
<wire x1="0.635" y1="1.016" x2="0.889" y2="1.397" width="0.127" layer="21"/>
<wire x1="0.889" y1="1.397" x2="1.016" y2="1.778" width="0.1016" layer="21"/>
<wire x1="0.635" y1="0.889" x2="0.762" y2="0.889" width="0.1016" layer="21"/>
<wire x1="0.762" y1="0.889" x2="0.889" y2="0.762" width="0.1016" layer="21"/>
<wire x1="0.889" y1="0.762" x2="1.016" y2="0.889" width="0.1016" layer="21"/>
<wire x1="1.016" y1="0.889" x2="1.27" y2="0.889" width="0.1016" layer="21"/>
<wire x1="1.27" y1="0.889" x2="1.397" y2="0.762" width="0.1016" layer="21"/>
<wire x1="1.397" y1="0.762" x2="1.397" y2="0.635" width="0.1016" layer="21"/>
<wire x1="1.397" y1="0.635" x2="1.524" y2="0.762" width="0.1016" layer="21"/>
<wire x1="1.524" y1="0.762" x2="1.651" y2="0.762" width="0.1016" layer="21"/>
<wire x1="1.651" y1="0.762" x2="1.778" y2="0.635" width="0.1016" layer="21"/>
<wire x1="1.778" y1="0.635" x2="1.778" y2="0.381" width="0.1016" layer="21"/>
<wire x1="-1.905" y1="2.413" x2="-2.032" y2="1.905" width="0.1778" layer="21"/>
<wire x1="-2.032" y1="1.905" x2="-2.032" y2="1.778" width="0.1778" layer="21"/>
<wire x1="-2.032" y1="1.778" x2="-2.032" y2="1.143" width="0.1778" layer="21"/>
<wire x1="-2.032" y1="1.143" x2="-1.905" y2="0.762" width="0.1778" layer="21"/>
<wire x1="-1.905" y1="0.762" x2="-1.778" y2="0.508" width="0.1778" layer="21"/>
<wire x1="-1.778" y1="0.508" x2="-1.651" y2="0.381" width="0.1778" layer="21"/>
<wire x1="-1.651" y1="0.381" x2="-1.397" y2="0.254" width="0.1778" layer="21"/>
<wire x1="-1.397" y1="0.254" x2="-1.016" y2="0.254" width="0.1778" layer="21"/>
<wire x1="-1.016" y1="0.254" x2="-0.635" y2="0.381" width="0.1778" layer="21"/>
<wire x1="-0.635" y1="0.381" x2="-0.381" y2="0.508" width="0.1778" layer="21"/>
<wire x1="-0.381" y1="0.508" x2="-0.381" y2="0.762" width="0.1778" layer="21"/>
<wire x1="-0.381" y1="0.762" x2="-0.508" y2="1.016" width="0.1778" layer="21"/>
<wire x1="-0.508" y1="1.016" x2="-0.762" y2="1.397" width="0.1524" layer="21"/>
<wire x1="-0.762" y1="1.397" x2="-0.889" y2="1.778" width="0.127" layer="21"/>
<wire x1="-0.889" y1="1.778" x2="-0.889" y2="2.032" width="0.1016" layer="21"/>
<wire x1="-1.651" y1="0.635" x2="-1.651" y2="0.381" width="0.1016" layer="21"/>
<wire x1="-1.651" y1="0.635" x2="-1.524" y2="0.762" width="0.1016" layer="21"/>
<wire x1="-1.524" y1="0.762" x2="-1.27" y2="0.635" width="0.1016" layer="21"/>
<wire x1="-1.27" y1="0.635" x2="-1.27" y2="0.762" width="0.1016" layer="21"/>
<wire x1="-1.27" y1="0.762" x2="-1.143" y2="0.889" width="0.1016" layer="21"/>
<wire x1="-1.143" y1="0.889" x2="-0.889" y2="0.889" width="0.1016" layer="21"/>
<wire x1="-0.889" y1="0.889" x2="-0.762" y2="0.762" width="0.1016" layer="21"/>
<wire x1="-0.762" y1="0.762" x2="-0.762" y2="0.889" width="0.1016" layer="21"/>
<wire x1="-0.762" y1="0.889" x2="-0.508" y2="1.016" width="0.1016" layer="21"/>
<wire x1="-2.032" y1="1.778" x2="-2.286" y2="1.778" width="0.1778" layer="21"/>
<wire x1="-2.286" y1="1.778" x2="-2.794" y2="1.905" width="0.1778" layer="21"/>
<wire x1="-2.794" y1="1.905" x2="-2.921" y2="1.905" width="0.1778" layer="21"/>
<wire x1="-2.921" y1="1.905" x2="-3.048" y2="1.524" width="0.1778" layer="21"/>
<wire x1="-3.048" y1="1.524" x2="-3.048" y2="1.143" width="0.1778" layer="21"/>
<wire x1="-3.048" y1="1.143" x2="-2.921" y2="0.635" width="0.1778" layer="21"/>
<wire x1="-2.921" y1="0.635" x2="-2.794" y2="0.381" width="0.1778" layer="21"/>
<wire x1="-2.794" y1="0.381" x2="-2.54" y2="0.254" width="0.1778" layer="21"/>
<wire x1="-2.54" y1="0.254" x2="-1.905" y2="0.381" width="0.1778" layer="21"/>
<wire x1="-1.905" y1="0.381" x2="-1.651" y2="0.381" width="0.1778" layer="21"/>
<wire x1="-0.508" y1="0.381" x2="0.762" y2="0.381" width="0.1778" layer="21"/>
<wire x1="-2.54" y1="1.905" x2="-2.54" y2="1.651" width="0.1016" layer="21"/>
<wire x1="-2.54" y1="1.651" x2="-2.794" y2="1.397" width="0.1016" layer="21"/>
<wire x1="-2.794" y1="1.397" x2="-2.667" y2="1.397" width="0.1016" layer="21"/>
<wire x1="-2.667" y1="1.397" x2="-2.667" y2="1.143" width="0.1016" layer="21"/>
<wire x1="-2.667" y1="1.143" x2="-2.794" y2="1.016" width="0.1016" layer="21"/>
<wire x1="-2.794" y1="1.016" x2="-3.048" y2="1.016" width="0.1016" layer="21"/>
<wire x1="1.905" y1="0.381" x2="2.54" y2="0.254" width="0.1778" layer="21"/>
<wire x1="2.54" y1="0.254" x2="2.921" y2="0.381" width="0.1778" layer="21"/>
<wire x1="2.921" y1="0.381" x2="3.048" y2="0.635" width="0.1778" layer="21"/>
<wire x1="3.048" y1="0.635" x2="3.175" y2="1.143" width="0.1778" layer="21"/>
<wire x1="3.175" y1="1.143" x2="3.175" y2="1.524" width="0.1778" layer="21"/>
<wire x1="3.175" y1="1.524" x2="3.048" y2="1.905" width="0.1778" layer="21"/>
<wire x1="3.048" y1="1.905" x2="2.794" y2="1.905" width="0.1778" layer="21"/>
<wire x1="2.794" y1="1.905" x2="2.413" y2="1.778" width="0.1778" layer="21"/>
<wire x1="2.413" y1="1.778" x2="2.159" y2="1.778" width="0.1778" layer="21"/>
<wire x1="2.794" y1="1.905" x2="2.667" y2="1.778" width="0.1016" layer="21"/>
<wire x1="2.667" y1="1.778" x2="2.667" y2="1.651" width="0.1016" layer="21"/>
<wire x1="2.667" y1="1.651" x2="2.794" y2="1.524" width="0.1016" layer="21"/>
<wire x1="2.794" y1="1.524" x2="2.794" y2="1.397" width="0.1016" layer="21"/>
<wire x1="2.794" y1="1.397" x2="2.667" y2="1.27" width="0.1016" layer="21"/>
<wire x1="2.667" y1="1.27" x2="2.921" y2="1.016" width="0.1016" layer="21"/>
<wire x1="2.921" y1="1.016" x2="3.175" y2="1.016" width="0.1016" layer="21"/>
<wire x1="0" y1="3.048" x2="-0.127" y2="3.048" width="0.1016" layer="21"/>
<wire x1="-0.127" y1="3.048" x2="-0.254" y2="2.667" width="0.1016" layer="21"/>
<wire x1="-0.254" y1="2.667" x2="-0.381" y2="2.032" width="0.1016" layer="21"/>
<wire x1="-0.381" y1="2.032" x2="-0.381" y2="1.397" width="0.1016" layer="21"/>
<wire x1="-0.381" y1="1.397" x2="0.127" y2="1.27" width="0.1016" layer="21"/>
<wire x1="0.127" y1="1.27" x2="0.381" y2="1.27" width="0.1016" layer="21"/>
<wire x1="0.381" y1="1.27" x2="0.508" y2="1.397" width="0.1016" layer="21"/>
<wire x1="0.508" y1="1.397" x2="0.508" y2="2.159" width="0.1016" layer="21"/>
<wire x1="0.508" y1="2.159" x2="0.381" y2="2.921" width="0.1016" layer="21"/>
<wire x1="0.381" y1="2.921" x2="0.254" y2="3.048" width="0.1016" layer="21"/>
<wire x1="0.254" y1="3.048" x2="0" y2="2.667" width="0.1016" layer="21"/>
<wire x1="0" y1="2.667" x2="-0.127" y2="2.667" width="0.1016" layer="21"/>
<wire x1="-0.127" y1="2.667" x2="-0.127" y2="2.794" width="0.1016" layer="21"/>
<wire x1="-0.127" y1="2.794" x2="0" y2="3.048" width="0.1016" layer="21"/>
<wire x1="-0.254" y1="1.397" x2="-0.254" y2="2.286" width="0.1778" layer="21"/>
<wire x1="-0.254" y1="2.286" x2="-0.127" y2="2.667" width="0.1778" layer="21"/>
<wire x1="-0.127" y1="2.667" x2="0" y2="2.54" width="0.1778" layer="21"/>
<wire x1="0" y1="2.54" x2="0.254" y2="2.921" width="0.1778" layer="21"/>
<wire x1="0.254" y1="2.921" x2="0.381" y2="2.159" width="0.1778" layer="21"/>
<wire x1="0.381" y1="2.159" x2="0.381" y2="1.397" width="0.1778" layer="21"/>
<wire x1="0.381" y1="1.397" x2="-0.127" y2="1.397" width="0.1778" layer="21"/>
<wire x1="-0.127" y1="1.397" x2="-0.127" y2="2.413" width="0.1778" layer="21"/>
<wire x1="-0.127" y1="2.413" x2="0.254" y2="2.667" width="0.1778" layer="21"/>
<wire x1="0.254" y1="2.667" x2="0.254" y2="1.524" width="0.1778" layer="21"/>
<wire x1="0.254" y1="1.524" x2="0" y2="1.524" width="0.1778" layer="21"/>
<wire x1="0" y1="1.524" x2="0" y2="2.413" width="0.1778" layer="21"/>
<wire x1="0" y1="2.413" x2="0.127" y2="2.413" width="0.1778" layer="21"/>
<wire x1="0.127" y1="2.413" x2="0.127" y2="1.651" width="0.1778" layer="21"/>
<wire x1="-1.651" y1="7.747" x2="-1.778" y2="7.62" width="0.1016" layer="21"/>
<wire x1="-1.778" y1="7.62" x2="-1.778" y2="7.493" width="0.1524" layer="21"/>
<wire x1="-1.778" y1="7.493" x2="-1.651" y2="7.366" width="0.1016" layer="21"/>
<wire x1="-1.651" y1="7.366" x2="-1.524" y2="7.239" width="0.0762" layer="21"/>
<wire x1="1.397" y1="7.239" x2="1.524" y2="7.366" width="0.0508" layer="21"/>
<wire x1="1.524" y1="7.366" x2="1.651" y2="7.493" width="0.1016" layer="21"/>
<wire x1="1.651" y1="7.493" x2="1.651" y2="7.62" width="0.1524" layer="21"/>
<wire x1="1.651" y1="7.62" x2="1.524" y2="7.747" width="0.1016" layer="21"/>
<circle x="-1.2192" y="6.0452" radius="0.200659375" width="0" layer="21"/>
<circle x="1.1684" y="6.0452" radius="0.200659375" width="0" layer="21"/>
<circle x="-1.9812" y="4.8514" radius="0.127" width="0" layer="21"/>
<circle x="-1.8542" y="4.9276" radius="0.127" width="0" layer="21"/>
<circle x="-1.9304" y="4.8768" radius="0.127" width="0" layer="21"/>
<circle x="1.8796" y="4.8768" radius="0.127" width="0" layer="21"/>
<circle x="1.7272" y="4.953" radius="0.127" width="0" layer="21"/>
<circle x="1.8034" y="4.9022" radius="0.127" width="0" layer="21"/>
</package>
</packages>
</library>
<library name="oshw">
<description>&lt;p&gt;&lt;strong&gt;Open Source Hardware PCB Logos&lt;/strong&gt;
&lt;p&gt;A simple polygon based version of the OSHWA logos for use on Eagle PCB's
&lt;p&gt;For use please refer to the OSHWA definition at &lt;a href="http://www.oshwa.org/definition/"&gt;http://www.oshwa.org/definition/&lt;/a&gt;
&lt;p&gt;Based on the NBitWonder version (&lt;a href="http://nbitwonder.com"&gt;http://nbitwonder.com&lt;/a&gt;)
&lt;p&gt;&lt;strong&gt;Andrew Cooper&lt;/strong&gt;&lt;br&gt;28Nov2016&lt;br&gt;&lt;a href="http://www.darkerview.com"&gt;www.DarkerView.com&lt;/a&gt;</description>
<packages>
<package name="OSHW_5MM">
<polygon width="0.0508" layer="25">
<vertex x="-0.2413" y="-0.6096" curve="-160.717601"/>
<vertex x="0" y="0.6604" curve="-152.950596"/>
<vertex x="0.2794" y="-0.6096"/>
<vertex x="0.6731" y="-1.6002"/>
<vertex x="0.8255" y="-1.5367"/>
<vertex x="0.9779" y="-1.4351"/>
<vertex x="1.4859" y="-1.7907"/>
<vertex x="1.5875" y="-1.7018"/>
<vertex x="1.6764" y="-1.6129"/>
<vertex x="1.778" y="-1.4986"/>
<vertex x="1.8669" y="-1.3843"/>
<vertex x="1.4986" y="-0.8509"/>
<vertex x="1.5875" y="-0.6985"/>
<vertex x="1.6383" y="-0.5461"/>
<vertex x="1.6891" y="-0.3429"/>
<vertex x="2.3114" y="-0.2286"/>
<vertex x="2.3114" y="-0.0508"/>
<vertex x="2.3114" y="0.0635"/>
<vertex x="2.2987" y="0.2032"/>
<vertex x="2.286" y="0.3302"/>
<vertex x="1.6637" y="0.4445"/>
<vertex x="1.6129" y="0.6096"/>
<vertex x="1.5494" y="0.7493"/>
<vertex x="1.4605" y="0.9017"/>
<vertex x="1.4478" y="0.9271"/>
<vertex x="1.8034" y="1.4224"/>
<vertex x="1.7018" y="1.5494"/>
<vertex x="1.5748" y="1.6764"/>
<vertex x="1.4732" y="1.7653"/>
<vertex x="1.3843" y="1.8288"/>
<vertex x="0.8636" y="1.4605"/>
<vertex x="0.7493" y="1.524"/>
<vertex x="0.635" y="1.5748"/>
<vertex x="0.5207" y="1.6256"/>
<vertex x="0.4064" y="1.651"/>
<vertex x="0.2921" y="2.2733"/>
<vertex x="0.1397" y="2.286"/>
<vertex x="-0.0381" y="2.286"/>
<vertex x="-0.1524" y="2.286"/>
<vertex x="-0.2794" y="2.2733"/>
<vertex x="-0.381" y="1.6637"/>
<vertex x="-0.5715" y="1.6002"/>
<vertex x="-0.6985" y="1.5494"/>
<vertex x="-0.8763" y="1.4478"/>
<vertex x="-1.3843" y="1.8161"/>
<vertex x="-1.4986" y="1.7272"/>
<vertex x="-1.6256" y="1.6002"/>
<vertex x="-1.7272" y="1.4859"/>
<vertex x="-1.7907" y="1.4224"/>
<vertex x="-1.4351" y="0.9017"/>
<vertex x="-1.5113" y="0.7747"/>
<vertex x="-1.5875" y="0.6096"/>
<vertex x="-1.6256" y="0.4699"/>
<vertex x="-1.6637" y="0.381"/>
<vertex x="-2.286" y="0.2794"/>
<vertex x="-2.286" y="-0.2794"/>
<vertex x="-1.6637" y="-0.381"/>
<vertex x="-1.6129" y="-0.5588"/>
<vertex x="-1.5748" y="-0.6858"/>
<vertex x="-1.524" y="-0.7874"/>
<vertex x="-1.4351" y="-0.9398"/>
<vertex x="-1.8034" y="-1.4478"/>
<vertex x="-1.7018" y="-1.5621"/>
<vertex x="-1.6129" y="-1.651"/>
<vertex x="-1.4986" y="-1.7526"/>
<vertex x="-1.4097" y="-1.8288"/>
<vertex x="-0.889" y="-1.4732"/>
<vertex x="-0.5969" y="-1.6256"/>
</polygon>
<text x="0" y="-2.032" size="0.762" layer="25" rot="SR0" align="top-center">open source
hardware</text>
</package>
</packages>
</library>
</libraries>
<attributes>
</attributes>
<variantdefs>
</variantdefs>
<classes>
<class number="0" name="default" width="0.3048" drill="0">
<clearance class="0" value="0.0762"/>
</class>
<class number="1" name="vcc" width="0.4064" drill="0">
<clearance class="1" value="0.0762"/>
</class>
</classes>
<designrules name="default">
<description language="de">&lt;b&gt;EAGLE Design Rules&lt;/b&gt;
&lt;p&gt;
Die Standard-Design-Rules sind so gewählt, dass sie für 
die meisten Anwendungen passen. Sollte ihre Platine 
besondere Anforderungen haben, treffen Sie die erforderlichen
Einstellungen hier und speichern die Design Rules unter 
einem neuen Namen ab.</description>
<description language="en">&lt;b&gt;EAGLE Design Rules&lt;/b&gt;
&lt;p&gt;
The default Design Rules have been set to cover
a wide range of applications. Your particular design
may have different requirements, so please make the
necessary adjustments and save your customized
design rules under a new name.</description>
<param name="layerSetup" value="(1*16)"/>
<param name="mtCopper" value="0.035mm 0.035mm 0.035mm 0.035mm 0.035mm 0.035mm 0.035mm 0.035mm 0.035mm 0.035mm 0.035mm 0.035mm 0.035mm 0.035mm 0.035mm 0.035mm"/>
<param name="mtIsolate" value="1.5mm 0.15mm 0.2mm 0.15mm 0.2mm 0.15mm 0.2mm 0.15mm 0.2mm 0.15mm 0.2mm 0.15mm 0.2mm 0.15mm 0.2mm"/>
<param name="mdWireWire" value="6mil"/>
<param name="mdWirePad" value="6mil"/>
<param name="mdWireVia" value="6mil"/>
<param name="mdPadPad" value="6mil"/>
<param name="mdPadVia" value="6mil"/>
<param name="mdViaVia" value="6mil"/>
<param name="mdSmdPad" value="6mil"/>
<param name="mdSmdVia" value="6mil"/>
<param name="mdSmdSmd" value="6mil"/>
<param name="mdViaViaSameLayer" value="6mil"/>
<param name="mnLayersViaInSmd" value="2"/>
<param name="mdCopperDimension" value="40mil"/>
<param name="mdDrill" value="6mil"/>
<param name="mdSmdStop" value="0mil"/>
<param name="msWidth" value="6mil"/>
<param name="msDrill" value="0.35mm"/>
<param name="msMicroVia" value="9.99mm"/>
<param name="msBlindViaRatio" value="0.5"/>
<param name="rvPadTop" value="0.25"/>
<param name="rvPadInner" value="0.25"/>
<param name="rvPadBottom" value="0.25"/>
<param name="rvViaOuter" value="0.25"/>
<param name="rvViaInner" value="0.25"/>
<param name="rvMicroViaOuter" value="0.25"/>
<param name="rvMicroViaInner" value="0.25"/>
<param name="rlMinPadTop" value="10mil"/>
<param name="rlMaxPadTop" value="20mil"/>
<param name="rlMinPadInner" value="10mil"/>
<param name="rlMaxPadInner" value="20mil"/>
<param name="rlMinPadBottom" value="10mil"/>
<param name="rlMaxPadBottom" value="20mil"/>
<param name="rlMinViaOuter" value="8mil"/>
<param name="rlMaxViaOuter" value="20mil"/>
<param name="rlMinViaInner" value="8mil"/>
<param name="rlMaxViaInner" value="20mil"/>
<param name="rlMinMicroViaOuter" value="4mil"/>
<param name="rlMaxMicroViaOuter" value="20mil"/>
<param name="rlMinMicroViaInner" value="4mil"/>
<param name="rlMaxMicroViaInner" value="20mil"/>
<param name="psTop" value="-1"/>
<param name="psBottom" value="-1"/>
<param name="psFirst" value="-1"/>
<param name="psElongationLong" value="100"/>
<param name="psElongationOffset" value="100"/>
<param name="mvStopFrame" value="1"/>
<param name="mvCreamFrame" value="0"/>
<param name="mlMinStopFrame" value="4mil"/>
<param name="mlMaxStopFrame" value="4mil"/>
<param name="mlMinCreamFrame" value="0mil"/>
<param name="mlMaxCreamFrame" value="0mil"/>
<param name="mlViaStopLimit" value="0mil"/>
<param name="srRoundness" value="0"/>
<param name="srMinRoundness" value="0mil"/>
<param name="srMaxRoundness" value="0mil"/>
<param name="slThermalIsolate" value="10mil"/>
<param name="slThermalsForVias" value="0"/>
<param name="dpMaxLengthDifference" value="10mm"/>
<param name="dpGapFactor" value="2.5"/>
<param name="checkAngle" value="0"/>
<param name="checkFont" value="1"/>
<param name="checkRestrict" value="1"/>
<param name="checkStop" value="0"/>
<param name="checkValues" value="0"/>
<param name="checkNames" value="1"/>
<param name="checkWireStubs" value="1"/>
<param name="checkPolygonWidth" value="0"/>
<param name="useDiameter" value="13"/>
<param name="maxErrors" value="50"/>
</designrules>
<autorouter>
<pass name="Default">
<param name="RoutingGrid" value="50mil"/>
<param name="AutoGrid" value="1"/>
<param name="Efforts" value="0"/>
<param name="TopRouterVariant" value="1"/>
<param name="tpViaShape" value="round"/>
<param name="PrefDir.1" value="a"/>
<param name="PrefDir.2" value="0"/>
<param name="PrefDir.3" value="0"/>
<param name="PrefDir.4" value="0"/>
<param name="PrefDir.5" value="0"/>
<param name="PrefDir.6" value="0"/>
<param name="PrefDir.7" value="0"/>
<param name="PrefDir.8" value="0"/>
<param name="PrefDir.9" value="0"/>
<param name="PrefDir.10" value="0"/>
<param name="PrefDir.11" value="0"/>
<param name="PrefDir.12" value="0"/>
<param name="PrefDir.13" value="0"/>
<param name="PrefDir.14" value="0"/>
<param name="PrefDir.15" value="0"/>
<param name="PrefDir.16" value="a"/>
<param name="cfVia" value="8"/>
<param name="cfNonPref" value="5"/>
<param name="cfChangeDir" value="2"/>
<param name="cfOrthStep" value="2"/>
<param name="cfDiagStep" value="3"/>
<param name="cfExtdStep" value="0"/>
<param name="cfBonusStep" value="1"/>
<param name="cfMalusStep" value="1"/>
<param name="cfPadImpact" value="4"/>
<param name="cfSmdImpact" value="4"/>
<param name="cfBusImpact" value="0"/>
<param name="cfHugging" value="3"/>
<param name="cfAvoid" value="4"/>
<param name="cfPolygon" value="10"/>
<param name="cfBase.1" value="0"/>
<param name="cfBase.2" value="1"/>
<param name="cfBase.3" value="1"/>
<param name="cfBase.4" value="1"/>
<param name="cfBase.5" value="1"/>
<param name="cfBase.6" value="1"/>
<param name="cfBase.7" value="1"/>
<param name="cfBase.8" value="1"/>
<param name="cfBase.9" value="1"/>
<param name="cfBase.10" value="1"/>
<param name="cfBase.11" value="1"/>
<param name="cfBase.12" value="1"/>
<param name="cfBase.13" value="1"/>
<param name="cfBase.14" value="1"/>
<param name="cfBase.15" value="1"/>
<param name="cfBase.16" value="0"/>
<param name="mnVias" value="20"/>
<param name="mnSegments" value="9999"/>
<param name="mnExtdSteps" value="9999"/>
<param name="mnRipupLevel" value="10"/>
<param name="mnRipupSteps" value="100"/>
<param name="mnRipupTotal" value="100"/>
</pass>
<pass name="Follow-me" refer="Default" active="yes">
</pass>
<pass name="Busses" refer="Default" active="yes">
<param name="cfNonPref" value="4"/>
<param name="cfBusImpact" value="4"/>
<param name="cfHugging" value="0"/>
<param name="mnVias" value="0"/>
</pass>
<pass name="Route" refer="Default" active="yes">
</pass>
<pass name="Optimize1" refer="Default" active="yes">
<param name="cfVia" value="99"/>
<param name="cfExtdStep" value="10"/>
<param name="cfHugging" value="1"/>
<param name="mnExtdSteps" value="1"/>
<param name="mnRipupLevel" value="0"/>
</pass>
<pass name="Optimize2" refer="Optimize1" active="yes">
<param name="cfNonPref" value="0"/>
<param name="cfChangeDir" value="6"/>
<param name="cfExtdStep" value="0"/>
<param name="cfBonusStep" value="2"/>
<param name="cfMalusStep" value="2"/>
<param name="cfPadImpact" value="2"/>
<param name="cfSmdImpact" value="2"/>
<param name="cfHugging" value="0"/>
</pass>
<pass name="Optimize3" refer="Optimize2" active="yes">
<param name="cfChangeDir" value="8"/>
<param name="cfPadImpact" value="0"/>
<param name="cfSmdImpact" value="0"/>
</pass>
<pass name="Optimize4" refer="Optimize3" active="yes">
<param name="cfChangeDir" value="25"/>
</pass>
</autorouter>
<elements>
<element name="PC/XT" library="Thomas" package="CARDEDGE_FEMALE_62PINS_8BITISA_STRAIGHT" value="CARDEDGE_FEMALE_62PINS_8BITISA_STRAIGHT" x="72.39" y="83.82" smashed="yes">
<attribute name="NAME" x="77.47" y="44.45" size="1.27" layer="21" rot="R90" align="center"/>
</element>
<element name="PC1" library="Thomas" package="CARDEDGE_FEMALE_60PINS_PC1_ANGLEDLEFT" value="CARDEDGE_FEMALE_60PINS_PC1_ANGLEDLEFT" x="2.54" y="82.55" smashed="yes">
<attribute name="NAME" x="7.62" y="44.45" size="1.27" layer="21" rot="R90" align="center"/>
</element>
<element name="PWR_IN" library="Thomas" package="PC-PWR_MALE_4PINS_VERTICAL" value="PC-PWR_MALE_4PINS_VERTICAL" x="34.29" y="77.47" smashed="yes">
<attribute name="NAME" x="18.542" y="74.168" size="1.27" layer="21"/>
</element>
<element name="U$1" library="Thomas" package="AUTUMNHIPPO_LOGO_8MM" value="" x="31.496" y="22.86" smashed="yes" rot="R270"/>
<element name="U$2" library="oshw" package="OSHW_5MM" value="" x="35.56" y="39.37" smashed="yes" rot="R270"/>
</elements>
<signals>
<signal name="DATA7">
<contactref element="PC/XT" pad="A2"/>
<contactref element="PC1" pad="A1"/>
<wire x1="6.35" y1="80.01" x2="5.08" y2="81.28" width="0.3048" layer="1"/>
<wire x1="10.78341875" y1="80.01" x2="6.35" y2="80.01" width="0.3048" layer="1"/>
<wire x1="80.01" y1="80.01" x2="80.01" y2="80.0252375" width="0.3048" layer="1"/>
<wire x1="80.01" y1="80.0252375" x2="79.1164375" y2="80.9188" width="0.3048" layer="1"/>
<wire x1="79.1164375" y1="80.9188" x2="11.69221875" y2="80.9188" width="0.3048" layer="1"/>
<wire x1="11.69221875" y1="80.9188" x2="10.78341875" y2="80.01" width="0.3048" layer="1"/>
</signal>
<signal name="DATA6">
<contactref element="PC/XT" pad="A3"/>
<contactref element="PC1" pad="A2"/>
<wire x1="6.35" y1="77.47" x2="5.08" y2="78.74" width="0.3048" layer="1"/>
<wire x1="71.7504375" y1="75.5452" x2="13.3395625" y2="75.5452" width="0.3048" layer="1"/>
<wire x1="11.4147625" y1="77.47" x2="6.35" y2="77.47" width="0.3048" layer="1"/>
<wire x1="80.01" y1="77.47" x2="78.994" y2="76.454" width="0.3048" layer="1"/>
<wire x1="78.994" y1="76.454" x2="72.6592375" y2="76.454" width="0.3048" layer="1"/>
<wire x1="72.6592375" y1="76.454" x2="71.7504375" y2="75.5452" width="0.3048" layer="1"/>
<wire x1="13.3395625" y1="75.5452" x2="11.4147625" y2="77.47" width="0.3048" layer="1"/>
</signal>
<signal name="DATA5">
<contactref element="PC/XT" pad="A4"/>
<contactref element="PC1" pad="A3"/>
<wire x1="6.35" y1="74.93" x2="5.08" y2="76.2" width="0.3048" layer="1"/>
<wire x1="73.01341875" y1="74.93" x2="6.35" y2="74.93" width="0.3048" layer="1"/>
<wire x1="80.01" y1="74.93" x2="80.01" y2="74.9452375" width="0.3048" layer="1"/>
<wire x1="80.01" y1="74.9452375" x2="79.1164375" y2="75.8388" width="0.3048" layer="1"/>
<wire x1="79.1164375" y1="75.8388" x2="73.92221875" y2="75.8388" width="0.3048" layer="1"/>
<wire x1="73.92221875" y1="75.8388" x2="73.01341875" y2="74.93" width="0.3048" layer="1"/>
</signal>
<signal name="DATA4">
<contactref element="PC/XT" pad="A5"/>
<contactref element="PC1" pad="A4"/>
<wire x1="6.35" y1="72.39" x2="5.08" y2="73.66" width="0.3048" layer="1"/>
<wire x1="79.1164375" y1="71.4812" x2="12.3235625" y2="71.4812" width="0.3048" layer="1"/>
<wire x1="11.4147625" y1="72.39" x2="6.35" y2="72.39" width="0.3048" layer="1"/>
<wire x1="80.01" y1="72.39" x2="80.01" y2="72.3747625" width="0.3048" layer="1"/>
<wire x1="80.01" y1="72.3747625" x2="79.1164375" y2="71.4812" width="0.3048" layer="1"/>
<wire x1="12.3235625" y1="71.4812" x2="11.4147625" y2="72.39" width="0.3048" layer="1"/>
</signal>
<signal name="DATA3">
<contactref element="PC/XT" pad="A6"/>
<contactref element="PC1" pad="A5"/>
<wire x1="6.35" y1="69.85" x2="5.08" y2="71.12" width="0.3048" layer="1"/>
<wire x1="10.78341875" y1="69.85" x2="6.35" y2="69.85" width="0.3048" layer="1"/>
<wire x1="80.01" y1="69.85" x2="80.01" y2="69.8652375" width="0.3048" layer="1"/>
<wire x1="80.01" y1="69.8652375" x2="79.1164375" y2="70.7588" width="0.3048" layer="1"/>
<wire x1="79.1164375" y1="70.7588" x2="11.69221875" y2="70.7588" width="0.3048" layer="1"/>
<wire x1="11.69221875" y1="70.7588" x2="10.78341875" y2="69.85" width="0.3048" layer="1"/>
</signal>
<signal name="DATA2">
<contactref element="PC/XT" pad="A7"/>
<contactref element="PC1" pad="A6"/>
<wire x1="6.35" y1="67.31" x2="5.08" y2="68.58" width="0.3048" layer="1"/>
<wire x1="79.1164375" y1="66.4012" x2="12.3235625" y2="66.4012" width="0.3048" layer="1"/>
<wire x1="11.4147625" y1="67.31" x2="6.35" y2="67.31" width="0.3048" layer="1"/>
<wire x1="80.01" y1="67.31" x2="80.01" y2="67.2947625" width="0.3048" layer="1"/>
<wire x1="80.01" y1="67.2947625" x2="79.1164375" y2="66.4012" width="0.3048" layer="1"/>
<wire x1="12.3235625" y1="66.4012" x2="11.4147625" y2="67.31" width="0.3048" layer="1"/>
</signal>
<signal name="DATA1">
<contactref element="PC/XT" pad="A8"/>
<contactref element="PC1" pad="A7"/>
<wire x1="6.35" y1="64.77" x2="5.08" y2="66.04" width="0.3048" layer="1"/>
<wire x1="79.1164375" y1="63.8612" x2="12.3235625" y2="63.8612" width="0.3048" layer="1"/>
<wire x1="11.4147625" y1="64.77" x2="6.35" y2="64.77" width="0.3048" layer="1"/>
<wire x1="80.01" y1="64.77" x2="80.01" y2="64.7547625" width="0.3048" layer="1"/>
<wire x1="80.01" y1="64.7547625" x2="79.1164375" y2="63.8612" width="0.3048" layer="1"/>
<wire x1="12.3235625" y1="63.8612" x2="11.4147625" y2="64.77" width="0.3048" layer="1"/>
</signal>
<signal name="DATA0">
<contactref element="PC/XT" pad="A9"/>
<contactref element="PC1" pad="A8"/>
<wire x1="6.35" y1="62.23" x2="5.08" y2="63.5" width="0.3048" layer="1"/>
<wire x1="79.1164375" y1="61.3212" x2="51.6935625" y2="61.3212" width="0.3048" layer="1"/>
<wire x1="50.7847625" y1="62.23" x2="6.35" y2="62.23" width="0.3048" layer="1"/>
<wire x1="80.01" y1="62.23" x2="80.01" y2="62.2147625" width="0.3048" layer="1"/>
<wire x1="80.01" y1="62.2147625" x2="79.1164375" y2="61.3212" width="0.3048" layer="1"/>
<wire x1="51.6935625" y1="61.3212" x2="50.7847625" y2="62.23" width="0.3048" layer="1"/>
</signal>
<signal name="I/O_CH_RDY">
<contactref element="PC/XT" pad="A10"/>
<contactref element="PC1" pad="A9"/>
<wire x1="6.35" y1="59.69" x2="5.08" y2="60.96" width="0.3048" layer="1"/>
<wire x1="10.78341875" y1="59.69" x2="6.35" y2="59.69" width="0.3048" layer="1"/>
<wire x1="80.01" y1="59.69" x2="80.01" y2="59.7052375" width="0.3048" layer="1"/>
<wire x1="80.01" y1="59.7052375" x2="79.1164375" y2="60.5988" width="0.3048" layer="1"/>
<wire x1="79.1164375" y1="60.5988" x2="11.69221875" y2="60.5988" width="0.3048" layer="1"/>
<wire x1="11.69221875" y1="60.5988" x2="10.78341875" y2="59.69" width="0.3048" layer="1"/>
</signal>
<signal name="AEN">
<contactref element="PC/XT" pad="A11"/>
<contactref element="PC1" pad="A10"/>
<wire x1="6.35" y1="57.15" x2="5.08" y2="58.42" width="0.3048" layer="1"/>
<wire x1="10.78341875" y1="57.15" x2="6.35" y2="57.15" width="0.3048" layer="1"/>
<wire x1="80.01" y1="57.15" x2="80.01" y2="57.1652375" width="0.3048" layer="1"/>
<wire x1="80.01" y1="57.1652375" x2="79.1164375" y2="58.0588" width="0.3048" layer="1"/>
<wire x1="79.1164375" y1="58.0588" x2="11.69221875" y2="58.0588" width="0.3048" layer="1"/>
<wire x1="11.69221875" y1="58.0588" x2="10.78341875" y2="57.15" width="0.3048" layer="1"/>
</signal>
<signal name="ADDR19">
<contactref element="PC/XT" pad="A12"/>
<contactref element="PC1" pad="A11"/>
<wire x1="6.35" y1="54.61" x2="5.08" y2="55.88" width="0.3048" layer="1"/>
<wire x1="10.78341875" y1="54.61" x2="6.35" y2="54.61" width="0.3048" layer="1"/>
<wire x1="80.01" y1="54.61" x2="80.01" y2="54.6252375" width="0.3048" layer="1"/>
<wire x1="80.01" y1="54.6252375" x2="79.1164375" y2="55.5188" width="0.3048" layer="1"/>
<wire x1="79.1164375" y1="55.5188" x2="11.69221875" y2="55.5188" width="0.3048" layer="1"/>
<wire x1="11.69221875" y1="55.5188" x2="10.78341875" y2="54.61" width="0.3048" layer="1"/>
</signal>
<signal name="ADDR18">
<contactref element="PC/XT" pad="A13"/>
<contactref element="PC1" pad="A12"/>
<wire x1="6.35" y1="52.07" x2="5.08" y2="53.34" width="0.3048" layer="1"/>
<wire x1="10.78341875" y1="52.07" x2="6.35" y2="52.07" width="0.3048" layer="1"/>
<wire x1="80.01" y1="52.07" x2="80.01" y2="52.0852375" width="0.3048" layer="1"/>
<wire x1="80.01" y1="52.0852375" x2="79.1164375" y2="52.9788" width="0.3048" layer="1"/>
<wire x1="79.1164375" y1="52.9788" x2="11.69221875" y2="52.9788" width="0.3048" layer="1"/>
<wire x1="11.69221875" y1="52.9788" x2="10.78341875" y2="52.07" width="0.3048" layer="1"/>
</signal>
<signal name="ADDR17">
<contactref element="PC/XT" pad="A14"/>
<contactref element="PC1" pad="A13"/>
<wire x1="6.35" y1="49.53" x2="5.08" y2="50.8" width="0.3048" layer="1"/>
<wire x1="10.78341875" y1="49.53" x2="6.35" y2="49.53" width="0.3048" layer="1"/>
<wire x1="80.01" y1="49.53" x2="80.01" y2="49.5452375" width="0.3048" layer="1"/>
<wire x1="80.01" y1="49.5452375" x2="79.1164375" y2="50.4388" width="0.3048" layer="1"/>
<wire x1="79.1164375" y1="50.4388" x2="11.69221875" y2="50.4388" width="0.3048" layer="1"/>
<wire x1="11.69221875" y1="50.4388" x2="10.78341875" y2="49.53" width="0.3048" layer="1"/>
</signal>
<signal name="ADDR16">
<contactref element="PC/XT" pad="A15"/>
<contactref element="PC1" pad="A14"/>
<wire x1="6.35" y1="46.99" x2="5.08" y2="48.26" width="0.3048" layer="1"/>
<wire x1="10.78341875" y1="46.99" x2="6.35" y2="46.99" width="0.3048" layer="1"/>
<wire x1="80.01" y1="46.99" x2="80.01" y2="47.0052375" width="0.3048" layer="1"/>
<wire x1="80.01" y1="47.0052375" x2="79.1164375" y2="47.8988" width="0.3048" layer="1"/>
<wire x1="79.1164375" y1="47.8988" x2="11.69221875" y2="47.8988" width="0.3048" layer="1"/>
<wire x1="11.69221875" y1="47.8988" x2="10.78341875" y2="46.99" width="0.3048" layer="1"/>
</signal>
<signal name="ADDR15">
<contactref element="PC/XT" pad="A16"/>
<contactref element="PC1" pad="A15"/>
<wire x1="6.35" y1="44.45" x2="5.08" y2="45.72" width="0.3048" layer="1"/>
<wire x1="10.78341875" y1="44.45" x2="6.35" y2="44.45" width="0.3048" layer="1"/>
<wire x1="80.01" y1="44.45" x2="80.01" y2="44.4652375" width="0.3048" layer="1"/>
<wire x1="80.01" y1="44.4652375" x2="79.1164375" y2="45.3588" width="0.3048" layer="1"/>
<wire x1="79.1164375" y1="45.3588" x2="11.69221875" y2="45.3588" width="0.3048" layer="1"/>
<wire x1="11.69221875" y1="45.3588" x2="10.78341875" y2="44.45" width="0.3048" layer="1"/>
</signal>
<signal name="ADDR14">
<contactref element="PC/XT" pad="A17"/>
<contactref element="PC1" pad="A16"/>
<wire x1="6.35" y1="41.91" x2="5.08" y2="43.18" width="0.3048" layer="1"/>
<wire x1="10.78341875" y1="41.91" x2="6.35" y2="41.91" width="0.3048" layer="1"/>
<wire x1="80.01" y1="41.91" x2="80.01" y2="41.9252375" width="0.3048" layer="1"/>
<wire x1="80.01" y1="41.9252375" x2="79.1164375" y2="42.8188" width="0.3048" layer="1"/>
<wire x1="79.1164375" y1="42.8188" x2="11.69221875" y2="42.8188" width="0.3048" layer="1"/>
<wire x1="11.69221875" y1="42.8188" x2="10.78341875" y2="41.91" width="0.3048" layer="1"/>
</signal>
<signal name="ADDR13">
<contactref element="PC/XT" pad="A18"/>
<contactref element="PC1" pad="A17"/>
<wire x1="6.35" y1="39.37" x2="5.08" y2="40.64" width="0.3048" layer="1"/>
<wire x1="10.78341875" y1="39.37" x2="6.35" y2="39.37" width="0.3048" layer="1"/>
<wire x1="80.01" y1="39.37" x2="80.01" y2="39.3852375" width="0.3048" layer="1"/>
<wire x1="80.01" y1="39.3852375" x2="79.1164375" y2="40.2788" width="0.3048" layer="1"/>
<wire x1="79.1164375" y1="40.2788" x2="11.69221875" y2="40.2788" width="0.3048" layer="1"/>
<wire x1="11.69221875" y1="40.2788" x2="10.78341875" y2="39.37" width="0.3048" layer="1"/>
</signal>
<signal name="ADDR12">
<contactref element="PC/XT" pad="A19"/>
<contactref element="PC1" pad="A18"/>
<wire x1="6.35" y1="36.83" x2="5.08" y2="38.1" width="0.3048" layer="1"/>
<wire x1="79.1164375" y1="35.9212" x2="12.3235625" y2="35.9212" width="0.3048" layer="1"/>
<wire x1="11.4147625" y1="36.83" x2="6.35" y2="36.83" width="0.3048" layer="1"/>
<wire x1="80.01" y1="36.83" x2="80.01" y2="36.8147625" width="0.3048" layer="1"/>
<wire x1="80.01" y1="36.8147625" x2="79.1164375" y2="35.9212" width="0.3048" layer="1"/>
<wire x1="12.3235625" y1="35.9212" x2="11.4147625" y2="36.83" width="0.3048" layer="1"/>
</signal>
<signal name="ADDR11">
<contactref element="PC/XT" pad="A20"/>
<contactref element="PC1" pad="A19"/>
<wire x1="6.35" y1="34.29" x2="5.08" y2="35.56" width="0.3048" layer="1"/>
<wire x1="10.78341875" y1="34.29" x2="6.35" y2="34.29" width="0.3048" layer="1"/>
<wire x1="80.01" y1="34.29" x2="80.01" y2="34.3052375" width="0.3048" layer="1"/>
<wire x1="80.01" y1="34.3052375" x2="79.1164375" y2="35.1988" width="0.3048" layer="1"/>
<wire x1="79.1164375" y1="35.1988" x2="11.69221875" y2="35.1988" width="0.3048" layer="1"/>
<wire x1="11.69221875" y1="35.1988" x2="10.78341875" y2="34.29" width="0.3048" layer="1"/>
</signal>
<signal name="ADDR10">
<contactref element="PC/XT" pad="A21"/>
<contactref element="PC1" pad="A20"/>
<wire x1="6.35" y1="31.75" x2="5.08" y2="33.02" width="0.3048" layer="1"/>
<wire x1="10.78341875" y1="31.75" x2="6.35" y2="31.75" width="0.3048" layer="1"/>
<wire x1="80.01" y1="31.75" x2="80.01" y2="31.7652375" width="0.3048" layer="1"/>
<wire x1="80.01" y1="31.7652375" x2="79.1164375" y2="32.6588" width="0.3048" layer="1"/>
<wire x1="79.1164375" y1="32.6588" x2="11.69221875" y2="32.6588" width="0.3048" layer="1"/>
<wire x1="11.69221875" y1="32.6588" x2="10.78341875" y2="31.75" width="0.3048" layer="1"/>
</signal>
<signal name="ADDR09">
<contactref element="PC/XT" pad="A22"/>
<contactref element="PC1" pad="A21"/>
<wire x1="6.35" y1="29.21" x2="5.08" y2="30.48" width="0.3048" layer="1"/>
<wire x1="10.78341875" y1="29.21" x2="6.35" y2="29.21" width="0.3048" layer="1"/>
<wire x1="80.01" y1="29.21" x2="80.01" y2="29.2252375" width="0.3048" layer="1"/>
<wire x1="80.01" y1="29.2252375" x2="79.1164375" y2="30.1188" width="0.3048" layer="1"/>
<wire x1="79.1164375" y1="30.1188" x2="11.69221875" y2="30.1188" width="0.3048" layer="1"/>
<wire x1="11.69221875" y1="30.1188" x2="10.78341875" y2="29.21" width="0.3048" layer="1"/>
</signal>
<signal name="ADDR08">
<contactref element="PC/XT" pad="A23"/>
<contactref element="PC1" pad="A22"/>
<wire x1="6.35" y1="26.67" x2="5.08" y2="27.94" width="0.3048" layer="1"/>
<wire x1="10.78341875" y1="26.67" x2="6.35" y2="26.67" width="0.3048" layer="1"/>
<wire x1="80.01" y1="26.67" x2="80.01" y2="26.6852375" width="0.3048" layer="1"/>
<wire x1="80.01" y1="26.6852375" x2="79.1164375" y2="27.5788" width="0.3048" layer="1"/>
<wire x1="79.1164375" y1="27.5788" x2="11.69221875" y2="27.5788" width="0.3048" layer="1"/>
<wire x1="11.69221875" y1="27.5788" x2="10.78341875" y2="26.67" width="0.3048" layer="1"/>
</signal>
<signal name="ADDR07">
<contactref element="PC/XT" pad="A24"/>
<contactref element="PC1" pad="A23"/>
<wire x1="6.35" y1="24.13" x2="5.08" y2="25.4" width="0.3048" layer="1"/>
<wire x1="10.78341875" y1="24.13" x2="6.35" y2="24.13" width="0.3048" layer="1"/>
<wire x1="80.01" y1="24.13" x2="80.01" y2="24.1452375" width="0.3048" layer="1"/>
<wire x1="80.01" y1="24.1452375" x2="79.1164375" y2="25.0388" width="0.3048" layer="1"/>
<wire x1="79.1164375" y1="25.0388" x2="11.69221875" y2="25.0388" width="0.3048" layer="1"/>
<wire x1="11.69221875" y1="25.0388" x2="10.78341875" y2="24.13" width="0.3048" layer="1"/>
</signal>
<signal name="ADDR06">
<contactref element="PC/XT" pad="A25"/>
<contactref element="PC1" pad="A24"/>
<wire x1="6.35" y1="21.59" x2="5.08" y2="22.86" width="0.3048" layer="1"/>
<wire x1="10.78341875" y1="21.59" x2="6.35" y2="21.59" width="0.3048" layer="1"/>
<wire x1="80.01" y1="21.59" x2="80.01" y2="21.6052375" width="0.3048" layer="1"/>
<wire x1="80.01" y1="21.6052375" x2="79.1164375" y2="22.4988" width="0.3048" layer="1"/>
<wire x1="79.1164375" y1="22.4988" x2="11.69221875" y2="22.4988" width="0.3048" layer="1"/>
<wire x1="11.69221875" y1="22.4988" x2="10.78341875" y2="21.59" width="0.3048" layer="1"/>
</signal>
<signal name="ADDR05">
<contactref element="PC/XT" pad="A26"/>
<contactref element="PC1" pad="A25"/>
<wire x1="6.35" y1="19.05" x2="5.08" y2="20.32" width="0.3048" layer="1"/>
<wire x1="10.78341875" y1="19.05" x2="6.35" y2="19.05" width="0.3048" layer="1"/>
<wire x1="80.01" y1="19.05" x2="80.01" y2="19.0652375" width="0.3048" layer="1"/>
<wire x1="80.01" y1="19.0652375" x2="79.1164375" y2="19.9588" width="0.3048" layer="1"/>
<wire x1="79.1164375" y1="19.9588" x2="11.69221875" y2="19.9588" width="0.3048" layer="1"/>
<wire x1="11.69221875" y1="19.9588" x2="10.78341875" y2="19.05" width="0.3048" layer="1"/>
</signal>
<signal name="ADDR04">
<contactref element="PC/XT" pad="A27"/>
<contactref element="PC1" pad="A26"/>
<wire x1="6.35" y1="16.51" x2="5.08" y2="17.78" width="0.3048" layer="1"/>
<wire x1="10.78341875" y1="16.51" x2="6.35" y2="16.51" width="0.3048" layer="1"/>
<wire x1="80.01" y1="16.51" x2="80.01" y2="16.5252375" width="0.3048" layer="1"/>
<wire x1="80.01" y1="16.5252375" x2="79.1164375" y2="17.4188" width="0.3048" layer="1"/>
<wire x1="79.1164375" y1="17.4188" x2="11.69221875" y2="17.4188" width="0.3048" layer="1"/>
<wire x1="11.69221875" y1="17.4188" x2="10.78341875" y2="16.51" width="0.3048" layer="1"/>
</signal>
<signal name="ADDR03">
<contactref element="PC/XT" pad="A28"/>
<contactref element="PC1" pad="A27"/>
<wire x1="6.35" y1="13.97" x2="5.08" y2="15.24" width="0.3048" layer="1"/>
<wire x1="10.78341875" y1="13.97" x2="6.35" y2="13.97" width="0.3048" layer="1"/>
<wire x1="80.01" y1="13.97" x2="80.01" y2="13.9852375" width="0.3048" layer="1"/>
<wire x1="80.01" y1="13.9852375" x2="79.1164375" y2="14.8788" width="0.3048" layer="1"/>
<wire x1="79.1164375" y1="14.8788" x2="11.69221875" y2="14.8788" width="0.3048" layer="1"/>
<wire x1="11.69221875" y1="14.8788" x2="10.78341875" y2="13.97" width="0.3048" layer="1"/>
</signal>
<signal name="ADDR02">
<contactref element="PC/XT" pad="A29"/>
<contactref element="PC1" pad="A28"/>
<wire x1="6.35" y1="11.43" x2="5.08" y2="12.7" width="0.3048" layer="1"/>
<wire x1="12.17855" y1="11.43" x2="6.35" y2="11.43" width="0.3048" layer="1"/>
<wire x1="80.01" y1="11.43" x2="80.01" y2="11.4147625" width="0.3048" layer="1"/>
<wire x1="80.01" y1="11.4147625" x2="79.1164375" y2="10.5212" width="0.3048" layer="1"/>
<wire x1="79.1164375" y1="10.5212" x2="13.08735" y2="10.5212" width="0.3048" layer="1"/>
<wire x1="13.08735" y1="10.5212" x2="12.17855" y2="11.43" width="0.3048" layer="1"/>
</signal>
<signal name="ADDR01">
<contactref element="PC/XT" pad="A30"/>
<contactref element="PC1" pad="A29"/>
<wire x1="6.35" y1="8.89" x2="5.08" y2="10.16" width="0.3048" layer="1"/>
<wire x1="79.1164375" y1="9.7988" x2="11.69221875" y2="9.7988" width="0.3048" layer="1"/>
<wire x1="11.69221875" y1="9.7988" x2="10.78341875" y2="8.89" width="0.3048" layer="1"/>
<wire x1="10.78341875" y1="8.89" x2="6.35" y2="8.89" width="0.3048" layer="1"/>
<wire x1="80.01" y1="8.89" x2="80.01" y2="8.9052375" width="0.3048" layer="1"/>
<wire x1="80.01" y1="8.9052375" x2="79.1164375" y2="9.7988" width="0.3048" layer="1"/>
</signal>
<signal name="ADDR00">
<contactref element="PC/XT" pad="A31"/>
<contactref element="PC1" pad="A30"/>
<wire x1="11.43" y1="6.35" x2="6.35" y2="6.35" width="0.3048" layer="1"/>
<wire x1="5.08" y1="7.62" x2="6.35" y2="6.35" width="0.3048" layer="1"/>
<wire x1="12.7" y1="7.62" x2="11.43" y2="6.35" width="0.3048" layer="1"/>
<wire x1="80.01" y1="6.35" x2="78.74" y2="7.62" width="0.3048" layer="1"/>
<wire x1="78.74" y1="7.62" x2="12.7" y2="7.62" width="0.3048" layer="1"/>
</signal>
<signal name="I/O_CH_CK">
<contactref element="PC/XT" pad="A1"/>
<contactref element="PC1" pad="B9"/>
<wire x1="80.01" y1="82.55" x2="78.74" y2="83.82" width="0.3048" layer="16"/>
<wire x1="78.74" y1="83.82" x2="69.85" y2="83.82" width="0.3048" layer="16"/>
<wire x1="69.85" y1="83.82" x2="68.58" y2="82.55" width="0.3048" layer="16"/>
<wire x1="68.58" y1="82.55" x2="16.8712" y2="82.55" width="0.3048" layer="16"/>
<wire x1="10.16" y1="60.96" x2="12.7" y2="63.5" width="0.3048" layer="16"/>
<wire x1="12.7" y1="78.3788" x2="12.7" y2="63.5" width="0.3048" layer="16"/>
<wire x1="16.8712" y1="82.55" x2="12.7" y2="78.3788" width="0.3048" layer="16"/>
</signal>
<signal name="RESET_DRV">
<contactref element="PC/XT" pad="B2"/>
<contactref element="PC1" pad="B2"/>
<wire x1="74.93" y1="80.01" x2="11.43" y2="80.01" width="0.3048" layer="1"/>
<wire x1="11.43" y1="80.01" x2="10.16" y2="78.74" width="0.3048" layer="1"/>
</signal>
<signal name="IRQ2">
<contactref element="PC/XT" pad="B4"/>
<contactref element="PC1" pad="B4"/>
<wire x1="74.93" y1="74.93" x2="73.66" y2="73.66" width="0.3048" layer="1"/>
<wire x1="73.66" y1="73.66" x2="10.16" y2="73.66" width="0.3048" layer="1"/>
</signal>
<signal name="N$35">
<contactref element="PC/XT" pad="B6"/>
<contactref element="PC1" pad="B6"/>
<wire x1="74.93" y1="69.85" x2="11.43" y2="69.85" width="0.3048" layer="1"/>
<wire x1="11.43" y1="69.85" x2="10.16" y2="68.58" width="0.3048" layer="1"/>
</signal>
<signal name="MEMW">
<contactref element="PC/XT" pad="B11"/>
<contactref element="PC1" pad="B11"/>
<wire x1="74.93" y1="57.15" x2="11.43" y2="57.15" width="0.3048" layer="1"/>
<wire x1="11.43" y1="57.15" x2="10.16" y2="55.88" width="0.3048" layer="1"/>
</signal>
<signal name="MEMR">
<contactref element="PC/XT" pad="B12"/>
<contactref element="PC1" pad="B12"/>
<wire x1="74.93" y1="54.61" x2="11.43" y2="54.61" width="0.3048" layer="1"/>
<wire x1="11.43" y1="54.61" x2="10.16" y2="53.34" width="0.3048" layer="1"/>
</signal>
<signal name="OSC">
<contactref element="PC1" pad="B30"/>
<contactref element="PC/XT" pad="B30"/>
<wire x1="74.93" y1="8.89" x2="11.43" y2="8.89" width="0.3048" layer="1"/>
<wire x1="11.43" y1="8.89" x2="10.16" y2="7.62" width="0.3048" layer="1"/>
</signal>
<signal name="ALE">
<contactref element="PC/XT" pad="B28"/>
<contactref element="PC1" pad="B28"/>
<wire x1="74.93" y1="13.97" x2="11.43" y2="13.97" width="0.3048" layer="1"/>
<wire x1="11.43" y1="13.97" x2="10.16" y2="12.7" width="0.3048" layer="1"/>
</signal>
<signal name="T/C">
<contactref element="PC/XT" pad="B27"/>
<contactref element="PC1" pad="B27"/>
<wire x1="74.93" y1="16.51" x2="11.43" y2="16.51" width="0.3048" layer="1"/>
<wire x1="11.43" y1="16.51" x2="10.16" y2="15.24" width="0.3048" layer="1"/>
</signal>
<signal name="DACK2">
<contactref element="PC/XT" pad="B26"/>
<contactref element="PC1" pad="B26"/>
<wire x1="74.93" y1="19.05" x2="11.43" y2="19.05" width="0.3048" layer="1"/>
<wire x1="11.43" y1="19.05" x2="10.16" y2="17.78" width="0.3048" layer="1"/>
</signal>
<signal name="IRQ3">
<contactref element="PC/XT" pad="B25"/>
<contactref element="PC1" pad="B25"/>
<wire x1="74.93" y1="21.59" x2="11.43" y2="21.59" width="0.3048" layer="1"/>
<wire x1="11.43" y1="21.59" x2="10.16" y2="20.32" width="0.3048" layer="1"/>
</signal>
<signal name="IRQ4">
<contactref element="PC/XT" pad="B24"/>
<contactref element="PC1" pad="B24"/>
<wire x1="74.93" y1="24.13" x2="11.43" y2="24.13" width="0.3048" layer="1"/>
<wire x1="11.43" y1="24.13" x2="10.16" y2="22.86" width="0.3048" layer="1"/>
</signal>
<signal name="IRQ5">
<contactref element="PC/XT" pad="B23"/>
<contactref element="PC1" pad="B23"/>
<wire x1="74.93" y1="26.67" x2="11.43" y2="26.67" width="0.3048" layer="1"/>
<wire x1="11.43" y1="26.67" x2="10.16" y2="25.4" width="0.3048" layer="1"/>
</signal>
<signal name="IRQ6">
<contactref element="PC/XT" pad="B22"/>
<contactref element="PC1" pad="B22"/>
<wire x1="74.93" y1="29.21" x2="11.43" y2="29.21" width="0.3048" layer="1"/>
<wire x1="11.43" y1="29.21" x2="10.16" y2="27.94" width="0.3048" layer="1"/>
</signal>
<signal name="IRQ7">
<contactref element="PC/XT" pad="B21"/>
<contactref element="PC1" pad="B21"/>
<wire x1="74.93" y1="31.75" x2="11.43" y2="31.75" width="0.3048" layer="1"/>
<wire x1="11.43" y1="31.75" x2="10.16" y2="30.48" width="0.3048" layer="1"/>
</signal>
<signal name="IOW">
<contactref element="PC/XT" pad="B13"/>
<contactref element="PC1" pad="B13"/>
<wire x1="74.93" y1="52.07" x2="11.43" y2="52.07" width="0.3048" layer="1"/>
<wire x1="11.43" y1="52.07" x2="10.16" y2="50.8" width="0.3048" layer="1"/>
</signal>
<signal name="IOR">
<contactref element="PC/XT" pad="B14"/>
<contactref element="PC1" pad="B14"/>
<wire x1="74.93" y1="49.53" x2="11.43" y2="49.53" width="0.3048" layer="1"/>
<wire x1="11.43" y1="49.53" x2="10.16" y2="48.26" width="0.3048" layer="1"/>
</signal>
<signal name="DACK3">
<contactref element="PC/XT" pad="B15"/>
<contactref element="PC1" pad="B15"/>
<wire x1="74.93" y1="46.99" x2="11.43" y2="46.99" width="0.3048" layer="1"/>
<wire x1="11.43" y1="46.99" x2="10.16" y2="45.72" width="0.3048" layer="1"/>
</signal>
<signal name="DRQ3">
<contactref element="PC/XT" pad="B16"/>
<contactref element="PC1" pad="B16"/>
<wire x1="74.93" y1="44.45" x2="11.43" y2="44.45" width="0.3048" layer="1"/>
<wire x1="11.43" y1="44.45" x2="10.16" y2="43.18" width="0.3048" layer="1"/>
</signal>
<signal name="CLK">
<contactref element="PC/XT" pad="B20"/>
<contactref element="PC1" pad="B20"/>
<wire x1="74.93" y1="34.29" x2="11.43" y2="34.29" width="0.3048" layer="1"/>
<wire x1="11.43" y1="34.29" x2="10.16" y2="33.02" width="0.3048" layer="1"/>
</signal>
<signal name="DRQ1">
<contactref element="PC/XT" pad="B18"/>
<contactref element="PC1" pad="B18"/>
<wire x1="74.93" y1="39.37" x2="11.43" y2="39.37" width="0.3048" layer="1"/>
<wire x1="11.43" y1="39.37" x2="10.16" y2="38.1" width="0.3048" layer="1"/>
</signal>
<signal name="DACK1">
<contactref element="PC/XT" pad="B17"/>
<contactref element="PC1" pad="B17"/>
<wire x1="74.93" y1="41.91" x2="11.43" y2="41.91" width="0.3048" layer="1"/>
<wire x1="11.43" y1="41.91" x2="10.16" y2="40.64" width="0.3048" layer="1"/>
</signal>
<signal name="+5V" class="1">
<contactref element="PC/XT" pad="B3"/>
<contactref element="PWR_IN" pad="4_+5V"/>
<contactref element="PC/XT" pad="B29"/>
<wire x1="74.93" y1="11.43" x2="33.02" y2="11.43" width="0.4064" layer="16"/>
<wire x1="33.02" y1="11.43" x2="20.32" y2="24.13" width="0.4064" layer="16"/>
<wire x1="20.32" y1="77.47" x2="20.32" y2="24.13" width="0.4064" layer="16"/>
<wire x1="22.86" y1="80.01" x2="20.32" y2="77.47" width="0.4064" layer="16"/>
<wire x1="74.93" y1="77.47" x2="72.39" y2="80.01" width="0.4064" layer="16"/>
<wire x1="72.39" y1="80.01" x2="22.86" y2="80.01" width="0.4064" layer="16"/>
</signal>
<signal name="+12V" class="1">
<contactref element="PC/XT" pad="B9"/>
<contactref element="PWR_IN" pad="1_+12V"/>
<wire x1="50.8" y1="62.23" x2="74.93" y2="62.23" width="0.4064" layer="16"/>
<wire x1="50.8" y1="62.23" x2="35.56" y2="77.47" width="0.4064" layer="16"/>
</signal>
<signal name="GND">
<contactref element="PC/XT" pad="B10"/>
<contactref element="PC1" pad="B10"/>
<contactref element="PC/XT" pad="B1"/>
<contactref element="PC1" pad="B1"/>
<contactref element="PC/XT" pad="B31"/>
<contactref element="PC1" pad="B3"/>
<contactref element="PC1" pad="B5"/>
<contactref element="PC1" pad="B7"/>
<contactref element="PC1" pad="B8"/>
<contactref element="PC1" pad="B29"/>
<wire x1="10.16" y1="81.28" x2="11.43" y2="82.55" width="0.3048" layer="1"/>
<wire x1="11.43" y1="82.55" x2="74.93" y2="82.55" width="0.3048" layer="1"/>
<wire x1="10.16" y1="81.28" x2="8.89" y2="80.01" width="0.3048" layer="16"/>
<wire x1="8.89" y1="77.47" x2="10.16" y2="76.2" width="0.3048" layer="16"/>
<wire x1="8.89" y1="80.01" x2="8.89" y2="77.47" width="0.3048" layer="16"/>
<wire x1="10.16" y1="76.2" x2="8.89" y2="74.93" width="0.3048" layer="16"/>
<wire x1="8.89" y1="72.39" x2="10.16" y2="71.12" width="0.3048" layer="16"/>
<wire x1="8.89" y1="74.93" x2="8.89" y2="72.39" width="0.3048" layer="16"/>
<wire x1="10.16" y1="71.12" x2="8.89" y2="69.85" width="0.3048" layer="16"/>
<wire x1="8.89" y1="67.31" x2="10.16" y2="66.04" width="0.3048" layer="16"/>
<wire x1="8.89" y1="69.85" x2="8.89" y2="67.31" width="0.3048" layer="16"/>
<wire x1="10.16" y1="66.04" x2="10.16" y2="63.5" width="0.3048" layer="16"/>
<wire x1="10.16" y1="63.5" x2="8.89" y2="62.23" width="0.3048" layer="16"/>
<wire x1="8.89" y1="59.69" x2="10.16" y2="58.42" width="0.3048" layer="16"/>
<wire x1="8.89" y1="62.23" x2="8.89" y2="59.69" width="0.3048" layer="16"/>
<wire x1="10.16" y1="58.42" x2="8.89" y2="57.15" width="0.3048" layer="16"/>
<wire x1="8.89" y1="11.43" x2="10.16" y2="10.16" width="0.3048" layer="16"/>
<wire x1="8.89" y1="57.15" x2="8.89" y2="11.43" width="0.3048" layer="16"/>
<wire x1="10.16" y1="10.16" x2="13.97" y2="6.35" width="0.3048" layer="16"/>
<wire x1="13.97" y1="6.35" x2="74.93" y2="6.35" width="0.3048" layer="16"/>
<wire x1="74.93" y1="59.69" x2="77.47" y2="62.23" width="0.4064" layer="16"/>
<wire x1="77.47" y1="62.23" x2="77.47" y2="80.01" width="0.4064" layer="16"/>
<wire x1="77.47" y1="80.01" x2="74.93" y2="82.55" width="0.4064" layer="16"/>
</signal>
<signal name="POUR">
<polygon width="0.3048" layer="1">
<vertex x="2.54" y="90.17"/>
<vertex x="2.54" y="-1.27"/>
<vertex x="82.55" y="-1.27"/>
<vertex x="82.55" y="90.17"/>
</polygon>
</signal>
</signals>
<mfgpreviewcolors>
<mfgpreviewcolor name="soldermaskcolor" color="0xC8008000"/>
<mfgpreviewcolor name="silkscreencolor" color="0xFFFEFEFE"/>
<mfgpreviewcolor name="backgroundcolor" color="0xFF282828"/>
<mfgpreviewcolor name="coppercolor" color="0xFFFFBF00"/>
<mfgpreviewcolor name="substratecolor" color="0xFF786E46"/>
</mfgpreviewcolors>
</board>
</drawing>
<compatibility>
<note version="6.3" minversion="6.2.2" severity="warning">
Since Version 6.2.2 text objects can contain more than one line,
which will not be processed correctly with this version.
</note>
</compatibility>
</eagle>
